  +1.0000000
20
  0   0   0  63   0   0   0   0   +0.0000000   +0.0000000   +0.0000000    -1
114   0 109  97   0   0   0   0   +0.0952390   +0.0007523   +0.0000001     0
  0   0   0   0   0   0   0   0   +0.0234129   -0.4646038   -0.0049952     1
114   0 109  97   0   0   0   0   +0.0231562   -0.4006252   -0.0124050     2
 32   0  32  32   0   0   0   0   -0.0000000   +0.2124624   -0.0000000     0
 71   1   0   0   0   0   0   0   -0.0002945   +0.2115581   +0.0000000     4
 59   1  59  59   0   0   0   0   -0.0000617   +0.2349734   +0.0000000     5
 59   0  59  59   0   0   0   0   +0.0040140   -0.0843267   +0.2253360     5
 59   0  59  59   0   0   0   0   +0.0000000   -0.2679430   +0.0287050     7
 59   0  32  65   0   0   0   0   +0.0000000   -0.2676680   +0.0286755     8
 59   0  59  59   0   0   0   0   +0.0000000   -0.4365200   -0.0164560     9
 10   0  59  13   0   0   0   0   +0.1786139   +0.0782279   -0.0239007     5
 59   0  59  59   0   0   0   0   +0.3022083   +0.0110892   -0.0137860    11
 59   0  59  59   5   0   0   0   +0.2838367   -0.0030067   +0.0263546    12
 59   0  59  59   0   0   0   0   -0.1780248   +0.0782278   -0.0239007     5
 78   0  95  66   0   0   0   0   -0.3022082   +0.0110892   -0.0137860    14
  0   0  65  78   4   0   0   0   -0.2838367   -0.0030065   +0.0263547    15
 66   0  69  78   0   0   0   0   -0.0952390   +0.0007524   +0.0000000     0
 77   0  13  10   0   0   0   0   -0.0234127   -0.4646038   -0.0049953    17
116   0 109  97   0   0   0   0   -0.0231561   -0.4006253   -0.0124050    18
  0   0   0   0 
80
data/animations/SYW_musketeer/LID_01_Standing~idle~new~actor.cas                  0      0       +0.0000   +0.0000   +0.0000         0 +0.0000    0   0  +0.0000      1820   32586 +0.0000  +0.0000  +1.0000 
  0   0    
data/animations/SYW_musketeer/LID_01_Incidental_idle~01.cas                       0      0       +0.0000   +0.0000   +0.0000         0 +0.0000    0   0  +0.0000      1820   32586 +0.0000  +0.0000  +1.0000 
  1   
 1  0  0  0  2  0  6  0 ANIM_IDLE_CLOTH           0  1  0    
data/animations/SYW_musketeer/LID_01_Incidental_idle~01.cas                       0      0       +0.0000   +0.0000   +0.0000         0 +0.0000    0   0  +0.0000      1820   32586 +0.0000  +0.0000  +1.0000 
  1   
 1  0  0  0  5  0  5  0 ANIM_IDLE_CLOTH           0  0  0    
data/animations/SYW_musketeer/LID_01_Incidental_idle~01.cas                       0      0       +0.0000   +0.0000   +0.0000         0 +0.0000    0   0  +0.0000      1820   32586 +0.0000  +0.0000  +1.0000 
  2   
 5  0  0  0  7  0  7  0 neck_crack                0  0  0 
 5  0  0  0  9  0  9  0 stretch_arms              0  0  0    0 0 0 0 0 0 
data/animations/SYW_musketeer/LID_08_Stand~2~90~right.cas                         0  16354       +0.0000   +0.0000   +0.0000         0 +0.0000    0   0  +0.0000      1820   32586 +0.0000  +0.0000  +1.0000 
  3   
 2  0  0  0 12  0 16  0 unit_march                0  1  0 
 2  0  0  0 20  0 24  0 unit_march                0  1  0 
 2  0  0  0 28  0 30  0 unit_march                0  1  0    0 
data/animations/SYW_musketeer/LID_09_Stand~2~90~left.cas                          0  49153       +0.0000   +0.0000   +0.0000         0 +0.0000    0   0  +0.0000      1820   32586 +0.0000  +0.0000  +1.0000 
  2   
 2  0  0  0  6  0 10  0 unit_march                0  1  0 
 2  0  0  0 16  0 20  0 unit_march                0  1  0    0 
data/animations/SYW_musketeer/LID_34~stand~2~March.cas                            0      0       +0.0000   +0.0000   +0.0000         0 +0.0000    0   0  +0.0000      1820   32586 +0.0000  +0.0000  +1.0000 
  2   
 2  0  0  0 10  0 12  0 unit_march                0  1  0 
 2  0  0  0 22  0 24  0 unit_march                0  1  0    
data/animations/SYW_musketeer/LID_03~March~loop.cas                               0      0       +0.0000   +0.0000   +0.0000         0 +0.0000    0   0  +0.0000      1820   32586 +0.0000  +0.0000  +1.0000 
  2   
 2  0  0  0  6  0 10  0 unit_march                0  1  0 
 2  0  0  0 16  0 20  0 unit_march                0  1  0    
data/animations/SYW_musketeer/LID_36~March~2~stand.cas                            0      0       +0.0000   +0.0000   +0.0000         0 +0.0000    0   0  +0.0000      1820   32586 +0.0000  +0.0000  +1.0000 
  2   
 2  0  0  0  4  0  6  0 unit_march                0  1  0 
 2  0  0  0 10  0 12  0 unit_march                0  1  0    0 0 0 
data/animations/SYW_musketeer/LID_35~Stand~2~Run.cas                              0      0       +0.0000   +0.0000   +0.0000         0 +0.0000    0   0  +0.0000      1820   32586 +0.0000  +0.0000  +1.0000 
  3   
 2  0  0  0  8  0 10  0 unit_run                  0  1  0 
 2  0  0  0 16  0 18  0 unit_run                  0  1  0 
 2  0  0  0 23  0 24  0 unit_march                0  1  0    
data/animations/SYW_musketeer/LID_04~Run~Loop.cas                                 0      0       +0.0000   +0.0000   +0.0000         0 +0.0000    0   0  +0.0000      1820   32586 +0.0000  +0.0000  +1.0000 
  2   
 2  0  0  0  4  0  6  0 unit_run                  0  1  0 
 2  0  0  0 10  0 11  0 unit_run                  0  1  0    
data/animations/SYW_musketeer/LID_39~Run~2~Stand.cas                              0      0       +0.0000   +0.0000   +0.0000         0 +0.0000    0   0  +0.0000      1820   32586 +0.0000  +0.0000  +1.0000 
  5   
 2  0  0  0  4  0  6  0 unit_run                  0  1  0 
 2  0  0  0 12  0 14  0 unit_run                  0  1  0 
 2  0  0  0 18  0 20  0 unit_run                  0  1  0 
 2  0  0  0 24  0 26  0 unit_march                0  1  0 
 2  0  0  0 32  0 34  0 unit_march                0  1  0    
data/animations/SYW_musketeer/LID_40~Run~2~march.cas                              0      0       +0.0000   +0.0000   +0.0000         0 +0.0000    0   0  +0.0000      1820   32586 +0.0000  +0.0000  +1.0000 
  3   
 2  0  0  0  4  0  6  0 unit_run                  0  1  0 
 2  0  0  0 11  0 13  0 unit_run                  0  1  0 
 2  0  0  0 20  0 22  0 unit_march                0  1  0    
data/animations/SYW_musketeer/LID_38~March~2~Run.cas                              0      0       +0.0000   +0.0000   +0.0000         0 +0.0000    0   0  +0.0000      1820   32586 +0.0000  +0.0000  +1.0000 
  3   
 2  0  0  0  4  0  6  0 unit_march                0  1  0 
 2  0  0  0 12  0 14  0 unit_march                0  1  0 
 2  0  0  0 22  0 22  0 unit_run                  0  0  0    
data/animations/SYW_musketeer/LID_48_Standing~ready~2~STAND.cas                   0      0       +0.0000   +0.0000   +0.0000         0 +0.0000    0   0  +0.0000      1820   32586 +0.0000  +0.0000  +1.0000 
  1   
 2  0  0  0 11  0 11  0 unit_march                0  0  0    
data/animations/SYW_musketeer/LID_02_Standing~Ready.cas                           0      0       +0.0000   +0.0000   +0.0000         0 +0.0000    0   0  +0.0000      1820   32586 +0.0000  +0.0000  +1.0000 
  0   0 0 0 0 0 0 0 0 0 0 0 0    
data/animations/SYW_musketeer/LIS~10~stand~ready~turn~90~right.cas                0  16513       +0.0000   +0.0000   +0.0000         0 +0.0000    0   0  +0.0000      1820   32586 +0.0000  +0.0000  +1.0000 
  1   
 2  0  0  0  8  0 12  0 unit_march                0  1  0    
data/animations/SYW_musketeer/LIS~11~stand~ready~turn~90~left.cas                 0  49261       +0.0000   +0.0000   +0.0000         0 +0.0000    0   0  +0.0000      1820   32586 +0.0000  +0.0000  +1.0000 
  1   
 2  0  0  0  8  0 12  0 unit_march                0  1  0    
data/animations/SYW_musketeer/LID_33_STAND~2~Standing~ready.cas                   0      0       +0.0000   +0.0000   +0.0000         0 +0.0000    0   0  +0.0000      1820   32586 +0.0000  +0.0000  +1.0000 
  1   
 2  0  0  0  2  0  2  0 unit_march                0  0  0    
data/animations/SYW_musketeer/LID_50_Stand~Ready~2~Adance.cas                     0      0       +0.0000   +0.0000   +0.0000         0 +0.0000    0   0  +0.0000      1820   32586 +0.0000  +0.0000  +1.0000 
  1   
 2  0  0  0 24  0 28  0 unit_march                0  1  0    
data/animations/SYW_musketeer/LID_07_Adance.cas                                   0      0       +0.0000   +0.0000   +0.0000         0 +0.0000    0   0  +0.0000      1820   32586 +0.0000  +0.0000  +1.0000 
  2   
 2  0  0  0 12  0 16  0 unit_march                0  1  0 
 2  0  0  0 28  0 32  0 unit_march                0  1  0    
data/animations/SYW_musketeer/LID_45_Advance~2~Stand~Ready.cas                    0      0       +0.0000   +0.0000   +0.0000         0 +0.0000    0   0  +0.0000      1820   32586 +0.0000  +0.0000  +1.0000 
  1   
 2  0  0  0  8  0 12  0 unit_march                0  1  0    
data/animations/SYW_musketeer/LID_49~Stand~ready~2~Retreat.cas                    0      0       +0.0000   +0.0000   +0.0000         0 +0.0000    0   0  +0.0000      1820   32586 +0.0000  +0.0000  +1.0000 
  1   
 2  0  0  0 22  0 24  0 unit_march                0  1  0    
data/animations/SYW_musketeer/LID_49~Stand~ready~2~Retreat.cas                    0      0       +0.0000   +0.0000   +0.0000         0 +0.0000    0   0  +0.0000      1820   32586 +0.0000  +0.0000  +1.0000 
  2   
 2  0  0  0 16  0 20  0 unit_march                0  1  0 
 2  0  0  0 30  0 36  0 unit_march                0  1  0    
data/animations/SYW_musketeer/LID_44_Retreat~2~Stand~Ready.cas                    0      0       +0.0000   +0.0000   +0.0000         0 +0.0000    0   0  +0.0000      1820   32586 +0.0000  +0.0000  +1.0000 
  1   
 2  0  0  0 12  0 14  0 unit_march                0  1  0    
data/animations/SYW_musketeer/LID_25_Shuffle~forward.cas                          0      0       +0.0000   +0.0000   +0.0000         0 +0.0000    0   0  +0.0000      1820   32586 +0.0000  +0.0000  +1.0000 
  2   
 2  0  0  0  9  0  9  0 unit_march                0  0  0 
 2  0  0  0 16  0 16  0 unit_march                0  0  0    
data/animations/SYW_musketeer/LID_26_Shuffle~back.cas                             0      0       +0.0000   +0.0000   +0.0000         0 +0.0000    0   0  +0.0000      1820   32586 +0.0000  +0.0000  +1.0000 
  2   
 2  0  0  0  8  0  8  0 unit_march                0  0  0 
 2  0  0  0 16  0 16  0 unit_march                0  0  0    
data/animations/SYW_musketeer/LID_27_Shuffle~left.cas                             0      0       +0.0000   +0.0000   +0.0000         0 +0.0000    0   0  +0.0000      1820   32586 +0.0000  +0.0000  +1.0000 
  2   
 2  0  0  0  8  0  8  0 unit_march                0  0  0 
 2  0  0  0 16  0 16  0 unit_march                0  0  0    
data/animations/SYW_musketeer/LID_28_Shuffle~Right.cas                            0      0       +0.0000   +0.0000   +0.0000         0 +0.0000    0   0  +0.0000      1820   32586 +0.0000  +0.0000  +1.0000 
  2   
 2  0  0  0  9  0  9  0 unit_march                0  0  0 
 2  0  0  0 16  0 16  0 unit_march                0  0  0    0 0 0 0 0 0 0 0 0 0 0 0 0 0 0 0 0 0 0 0 0 0 0 0 0 0 0 0 0 0 
data/animations/SYW_musketeer/LID_61~Archer~stand~ready~to~aim~FASTER~Prussia.cas  0      0       +0.0000   +0.0000   +0.0000         0 +0.0000    0   0  +0.0000      1820   32586 +0.0000  +0.0000  +1.0000 
  2   
 1  0  0  0 13  0 15  0 ANIM_MUSKET_READY         0  1  0 
 1  0  0  0 40  0 42  0 ANIM_MUSKET_AIM           0  1  0    
data/animations/SYW_musketeer/LID_62~Archer~aim~and~hold~looping~Prussia.cas      0      0       +0.0000   +0.0000   +0.0000         0 +0.0000    0   0  +0.0000      1820   32586 +0.0000  +0.0000  +1.0000 
  0      
data/animations/SYW_musketeer/LID_63~release~arrow~return~to~stand~ready~Prussia25.cas  0      0       +0.0000   +1.3900   +0.5400         0 +0.5400    5   0  +0.0017      1820   32586 +0.0000  +0.0000  +1.0000 
  1   
 1  0  0  0  4  0  6  0 ANIM_MUSKET_FIRE          0  1  0    
data/animations/SLG~DIE~02_03~~stabbed~dying~forwards.cas                         0      0       +0.0000   +0.0000   +0.0000         0 +0.0000    0   0  +0.0000      1820   32586 +0.0000  +0.0000  +1.0000 
  1   
 2  0  0  0 44  0 44  0 fall                      0  0  0    
data/animations/slg_17_die_forward.CAS                                            0  18322       +0.0000   +0.0000   +0.0000         0 +0.0000    0   0  +0.0000      1820   32586 +0.0000  +0.0000  +1.0000 
  1   
 2  0  0  0 12  0 12  0 fall                      0  0  0    
data/animations/SLG~DIE~02_01~stabbed~dying~backwards.cas                         0  32973       +0.0000   +0.0000   +0.0000         0 +0.0000    0   0  +0.0000      1820   32586 +0.0000  +0.0000  +1.0000 
  1   
 2  0  0  0 11  0 11  0 fall                      0  0  0    
data/animations/slg_18_die_backward.CAS                                           0  32990       +0.0000   +0.0000   +0.0000         0 +0.0000    0   0  +0.0000      1820   32586 +0.0000  +0.0000  +1.0000 
  1   
 2  0  0  0 11  0 11  0 fall                      0  0  0    
data/animations/SLG~DIE~01~dying~to~his~right.cas                                 0  17416       +0.0000   +0.0000   +0.0000         0 +0.0000    0   0  +0.0000      1820   32586 +0.0000  +0.0000  +1.0000 
  1   
 2  0  0  0  9  0  9  0 fall                      0  0  0    
data/animations/slg_19_die_back_right.CAS                                         0  36352       +0.0000   +0.0000   +0.0000         0 +0.0000    0   0  +0.0000      1820   32586 +0.0000  +0.0000  +1.0000 
  1   
 2  0  0  0  7  0  7  0 fall                      0  0  0    0 0 
data/animations/slg_20_flailing_cycle.CAS                                         0   3287       +0.0000   +0.0000   +0.0000         0 +0.0000    0   0  +0.0000      1820   32586 +0.0000  +0.0000  +1.0000 
  1   
 4  0  0  0  0  0  2  0 Fall_Scream               0  1  1    
data/animations/slg_21_flailing_cycle_2_land.CAS                                  0   7039       +0.0000   +0.0000   +0.0000         0 +0.0000    0   0  +0.0000      1820   32586 +0.0000  +0.0000  +1.0000 
  2   
 1  0  0  0  2  0  2  0 ANIM_FALL_SQUASH          0  0  0 
 4  0  0  0  4  0  4  0 INDIVIDUAL_FALL_GRUNT     0  0  0    0 0 0 0 0 0 
data/animations/slg_18_die_backward.CAS                                           0  32990       +0.0000   +0.0000   +0.0000         0 +0.0000    0   0  +0.0000      1820   32586 +0.0000  +0.0000  +1.0000 
  1   
 2  0  0  0 11  0 11  0 fall                      0  0  0    0 0 0 0 
data/animations/SYW_musketeer/LID_41~Run~2~charge.cas                             0      0       +0.0000   +0.0000   +0.0000         0 +0.0000    0   0  +0.0000      1820   32586 +0.0000  +0.0000  +1.0000 
  3   
 4  0  0  0  0  0  8  0 Inviduals_Charge          0  1  0 
 2  0  0  0  2  0  6  0 unit_run                  0  1  0 
 2  0  0  0  7  0 12  0 unit_run                  0  1  0    0 0 0 0 0 0 0 0 0 0 0 0 0 0 0 0 0 0 0 0 0 0 0 0 0 0 0 0 0 0 0 0 0 0 0 0 0 0 
data/animations/slg_22_stand_2_hide.CAS                                           0      0       +0.0000   +0.0000   +0.0000         0 +0.0000    0   0  +0.0000      1820   32586 +0.0000  +0.0000  +1.0000 
  0      
data/animations/slg_23_hide_loop.CAS                                              0      0       +0.0000   +0.0000   +0.0000         0 +0.0000    0   0  +0.0000      1820   32586 +0.0000  +0.0000  +1.0000 
  0      
data/animations/slg_24_hide_2_stand.CAS                                           0      0       +0.0000   +0.0000   +0.0000         0 +0.0000    0   0  +0.0000      1820   32586 +0.0000  +0.0000  +1.0000 
  0      
data/animations/SLG~32~Standready~back~Impact.cas                                 0      0       +0.0000   +0.0000   +0.0000         0 +0.0000    0   0  +0.0000      1820   32586 +0.0000  +0.0000  +1.0000 
  1   
 4  0  0  0  4  0  4  0 INDIVIDUAL_GRUNT          0  0  0    
data/animations/SLG~32M~Standready~back~Impact.cas                                0   3430       +0.0000   +0.0000   +0.0000         0 +0.0000    0   0  +0.0000      1820   32586 +0.0000  +0.0000  +1.0000 
  3   
 2  0  0  0  2  0  2  0 unit_march                0  0  0 
 4  0  0  0  4  0  4  0 INDIVIDUAL_GRUNT          0  0  0 
 2  0  0  0  5  0  5  0 unit_march                0  0  0    
data/animations/SLG~32~Standready~back~right~Impact.cas                           0   7107       +0.0000   +0.0000   +0.0000         0 +0.0000    0   0  +0.0000      1820   32586 +0.0000  +0.0000  +1.0000 
  1   
 4  0  0  0  2  0  2  0 INDIVIDUAL_GRUNT          0  0  0    
data/animations/SLG~32M~Standready~back~right~Impact.cas                          0   7749       +0.0000   +0.0000   +0.0000         0 +0.0000    0   0  +0.0000      1820   32586 +0.0000  +0.0000  +1.0000 
  3   
 2  0  0  0  3  0  3  0 unit_march                0  0  0 
 2  0  0  0  4  0  4  0 unit_march                0  0  0 
 4  0  0  0  4  0  4  0 INDIVIDUAL_GRUNT          0  0  0    
data/animations/SLG~32~Standready~front~Impact.cas                                0   6949       +0.0000   +0.0000   +0.0000         0 +0.0000    0   0  +0.0000      1820   32586 +0.0000  +0.0000  +1.0000 
  1   
 4  0  0  0  4  0  4  0 INDIVIDUAL_GRUNT          0  0  0    
data/animations/SLG~32M~Standready~front~Impact.cas                               0   5194       +0.0000   +0.0000   +0.0000         0 +0.0000    0   0  +0.0000      1820   32586 +0.0000  +0.0000  +1.0000 
  4   
 4  0  0  0  2  0  2  0 INDIVIDUAL_GRUNT          0  0  0 
 2  0  0  0  5  0  5  0 unit_march                0  0  0 
 2  0  0  0  7  0  7  0 unit_march                0  0  0 
 2  0  0  0 14  0 14  0 unit_march                0  0  0    
data/animations/SLG~32~Standready~front~left~Impact.cas                           0   9552       +0.0000   +0.0000   +0.0000         0 +0.0000    0   0  +0.0000      1820   32586 +0.0000  +0.0000  +1.0000 
  1   
 4  0  0  0  2  0  2  0 INDIVIDUAL_GRUNT          0  0  0    
data/animations/SLG~32M~Standready~front~left~Impact.cas                          0   3283       +0.0000   +0.0000   +0.0000         0 +0.0000    0   0  +0.0000      1820   32586 +0.0000  +0.0000  +1.0000 
  3   
 2  0  0  0  3  0  3  0 unit_march                0  0  0 
 4  0  0  0  4  0  4  0 INDIVIDUAL_GRUNT          0  0  0 
 2  0  0  0  7  0  7  0 unit_march                0  0  0    
data/animations/SLG~Ladder_02~Climb~down.cas                                      0      0       +0.0000   +0.0000   +0.0000         0 +0.0000    0   0  +0.0000      1820   32586 +0.0000  +0.0000  +1.0000 
  2   
 2  0  0  0  2  0  2  0 unit_march                0  0  0 
 2  0  0  0  7  0  7  0 unit_march                0  0  0    
data/animations/SLG~Ladder_03~Idle~still.cas                                      0      0       +0.0000   +0.0000   +0.0000         0 +0.0000    0   0  +0.0000      1820   32586 +0.0000  +0.0000  +1.0000 
  0      
data/animations/SLG~Ladder_01~Climb~up.cas                                        0      0       +0.0000   +0.0000   +0.0000         0 +0.0000    0   0  +0.0000      1820   32586 +0.0000  +0.0000  +1.0000 
  2   
 2  0  0  0  3  0  3  0 unit_march                0  0  0 
 2  0  0  0  8  0  8  0 unit_march                0  0  0    
data/animations/SLG~53~Stand~idle~~to~climb~ladder.cas                            0      0       +0.0000   +0.0000   +0.0000         0 +0.0000    0   0  +0.0000      1820   32586 +0.0000  +0.0000  +1.0000 
  1   
 2  0  0  0 11  0 11  0 unit_march                0  0  0    
data/animations/SLG~90~Battlement~2~climb~ladder~leftside.cas                     0  56633       +0.0000   +0.0000   +0.0000         0 +0.0000    0   0  +0.0000      1820   32586 +0.0000  +0.0000  +1.0000 
  3   
 2  0  0  0  6  0  6  0 unit_march                0  0  0 
 2  0  0  0 22  0 22  0 unit_march                0  0  0 
 2  0  0  0 32  0 32  0 unit_march                0  0  0    
data/animations/SLG~54~Climb~off~ladder~onto~left~bat~left~2~standready.cas       0   8509       +0.0000   +0.0000   +0.0000         0 +0.0000    0   0  +0.0000      1820   32586 +0.0000  +0.0000  +1.0000 
  2   
 2  0  0  0 12  0 12  0 unit_march                0  0  0 
 2  0  0  0 18  0 18  0 unit_march                0  0  0    
data/animations/SLG_56_Climb~down~ladder~2~Stand~ready.cas                        0   5244       +0.0000   +0.0000   +0.0000         0 +0.0000    0   0  +0.0000      1820   32586 +0.0000  +0.0000  +1.0000 
  2   
 2  0  0  0  8  0  8  0 unit_march                0  0  0 
 2  0  0  0 16  0 16  0 unit_march                0  0  0    0 0 0 0 0 0 0 0 0 0 0 0 0 0 0 0 0 0 0 0 0 0 0 0 0 0 0 0 0 0 0 0 0 0 0 0 0 0 0 0 0 0 0 0 0 0 0 0 0 0 0 0 0 0 0 0 0 0 
data/animations/carry_and_artillery/SLG_17~Stand~2~Push~heavy~object.cas          0      0       +0.0000   +0.0000   +0.0000         0 +0.0000    0   0  +0.0000      1820   32586 +0.0000  +0.0000  +1.0000 
  0      
data/animations/carry_and_artillery/SLG_18~Push~heavy~object~Loop.cas             0      0       +0.0000   +0.0000   +0.0000         0 +0.0000    0   0  +0.0000      1820   32586 +0.0000  +0.0000  +1.0000 
  0      
data/animations/carry_and_artillery/SLG_19~Push~heavy~object~2~Stand.cas          0      0       +0.0000   +0.0000   +0.0000         0 +0.0000    0   0  +0.0000      1820   32586 +0.0000  +0.0000  +1.0000 
  0   0 0 0 0 0 0 0 0 0 0 0 0 0 0 0 0 0 0 0 0 0 0    
data/animations/SYW_musketeer/LIS~01~Front~step.cas                               0      0       +0.0000   +0.0000   +0.0000         0 +0.0000    0   0  +0.0000      1820   32586 +0.0000  +0.0000  +1.0000 
  2   
 2  0  0  0  7  0 11  0 unit_march                0  1  0 
 2  0  0  0 19  0 23  0 unit_march                0  1  0    
data/animations/SYW_musketeer/LIS~01~Back~step.cas                                0      0       +0.0000   +0.0000   +0.0000         0 +0.0000    0   0  +0.0000      1820   32586 +0.0000  +0.0000  +1.0000 
  2   
 2  0  0  0  9  0 13  0 unit_march                0  1  0 
 2  0  0  0 20  0 24  0 unit_march                0  1  0    
data/animations/SYW_musketeer/LIS~01~Left~step.cas                                0      0       +0.0000   +0.0000   +0.0000         0 +0.0000    0   0  +0.0000      1820   32586 +0.0000  +0.0000  +1.0000 
  2   
 2  0  0  0  9  0 13  0 unit_march                0  1  0 
 2  0  0  0 20  0 24  0 unit_march                0  1  0    
data/animations/SYW_musketeer/LIS~01~Right~step.cas                               0      0       +0.0000   +0.0000   +0.0000         0 +0.0000    0   0  +0.0000      1820   32586 +0.0000  +0.0000  +1.0000 
  2   
 2  0  0  0  9  0 13  0 unit_march                0  1  0 
 2  0  0  0 20  0 24  0 unit_march                0  1  0    0 0 0 0 0 0 0 0 0 0 0 0 0 0 0 0 0 0 0 0 0 
data/animations/SLG/SLG_113_knockdown_launch.CAS                                  0      0       +0.0000   +0.0000   +0.0000         0 +0.0000    0   0  +0.0000      1820   32586 +0.0000  +0.0000  +1.0000 
  2   
 4  0  0  0  0  0  0  0 INDIVIDUAL_GRUNT          0  0  0 
 2  0  0  0 11  0 11  0 fall                      0  0  0    
data/animations/SLG/SLG_116_knockdown.CAS                                         0      0       +0.0000   +0.0000   +0.0000         0 +0.0000    0   0  +0.0000      1820   32586 +0.0000  +0.0000  +1.0000 
  2   
 4  0  0  0  2  0  2  0 Individuals_Grunt         0  0  0 
 2  0  0  0  8  0  8  0 fall                      0  0  0    
data/animations/SLG/SLG_114_knockdown_idle.CAS                                    0      0       +0.0000   +0.0000   +0.0000         0 +0.0000    0   0  +0.0000      1820   32586 +0.0000  +0.0000  +1.0000 
  0      
data/animations/SLG/SLG_115_knockdown_idle_2_Stand_ready.CAS                      0      0       +0.0000   +0.0000   +0.0000         0 +0.0000    0   0  +0.0000      1820   32586 +0.0000  +0.0000  +1.0000 
  1   
 2  0  0  0 24  0 24  0 unit_march                0  0  0    0 0 0 0 0 0 0 0 0 0 0 0 0 
data/animations/SLG_swim_STAND2SWIM.CAS                                           0      0       +0.0000   +0.0000   +0.0000         0 +0.0000    0   0  +0.0000      1820   32586 +0.0000  +0.0000  +1.0000 
  0      
data/animations/SLG_swim_SWIM2STAND.CAS                                           0      0       +0.0000   +0.0000   +0.0000         0 +0.0000    0   0  +0.0000      1820   32586 +0.0000  +0.0000  +1.0000 
  0      
data/animations/SLG_swim_treadwater.CAS                                           0      0       +0.0000   +0.0000   +0.0000         0 +0.0000    0   0  +0.0000      1820   32586 +0.0000  +0.0000  +1.0000 
  0      
data/animations/SLG_swim.cas                                                      0      0       +0.0000   +0.0000   +0.0000         0 +0.0000    0   0  +0.0000      1820   32586 +0.0000  +0.0000  +1.0000 
  0      
data/animations/SLG_swim_shuffle_forward.CAS                                      0      0       +0.0000   +0.0000   +0.0000         0 +0.0000    0   0  +0.0000      1820   32586 +0.0000  +0.0000  +1.0000 
  0      
data/animations/SLG_swim_shuffle_backward.CAS                                     0      0       +0.0000   +0.0000   +0.0000         0 +0.0000    0   0  +0.0000      1820   32586 +0.0000  +0.0000  +1.0000 
  0      
data/animations/SLG_swim_shuffle_left.CAS                                         0      0       +0.0000   +0.0000   +0.0000         0 +0.0000    0   0  +0.0000      1820   32586 +0.0000  +0.0000  +1.0000 
  0      
data/animations/SLG_swim_shuffle_right.CAS                                        0      0       +0.0000   +0.0000   +0.0000         0 +0.0000    0   0  +0.0000      1820   32586 +0.0000  +0.0000  +1.0000 
  0      
data/animations/SLG_swim_attack.CAS                                               0      0       +0.0000   +0.0000   +0.0000         0 +0.0000    0   0  +0.0000      1820   32586 +0.0000  +0.0000  +1.0000 
  0      0 0 
  +0.8964706   +2.4000000   +0.0000000 1 1 
