  +1.0000000
19
  0   0   0  63   0   0   0   0   +0.0000000   +0.0000000   +0.0000000    -1
114   0 109  97   0   0   0   0   +0.0952390   +0.0007523   +0.0000001     0
  0   0   0   0   0   0   0   0   +0.0234129   -0.4646038   -0.0049952     1
114   0 109  97   0   0   0   0   +0.0231562   -0.4006252   -0.0124050     2
 32   0  32  32   0   0   0   0   -0.0000000   +0.2124624   -0.0000000     0
 71   1   0   0   0   0   0   0   -0.0002945   +0.2115581   +0.0000000     4
 59   1  59  59   0   0   0   0   -0.0000617   +0.2349734   +0.0000000     5
 59   0  59  59   0   0   0   0   +0.0040140   -0.0843266   -0.2039877     5
 59   0  59  59   0   0   0   0   +0.0000000   -0.2602941   -0.0697457     7
 59   0  32  65   0   0   0   0   +0.0000000   -0.2600267   -0.0696740     8
 10   0  59  13   0   0   0   0   +0.1786139   +0.0782279   -0.0239007     5
 59   0  59  59   0   0   0   0   +0.3022083   +0.0110892   -0.0137860    10
 59   0  59  59   5   0   0   0   +0.2838367   -0.0030067   +0.0263546    11
 59   0  59  59   0   0   0   0   -0.1780248   +0.0782278   -0.0239007     5
 78   0  95  66   0   0   0   0   -0.3022082   +0.0110892   -0.0137860    13
  0   0  65  78   4   0   0   0   -0.2838367   -0.0030065   +0.0263547    14
 66   0  69  78   0   0   0   0   -0.0952390   +0.0007524   +0.0000000     0
 77   0  13  10   0   0   0   0   -0.0234127   -0.4646038   -0.0049953    16
116   0 109  97   0   0   0   0   -0.0231561   -0.4006253   -0.0124050    17
  0   0   0  63 
150
data/animations/SYW_drummer/SG~01~stand~idle.cas                                  0      0       +0.0000   +0.0000   +0.0000         0 +0.0000    0   0  +0.0000      1820   32586 +0.0000  +0.0000  +1.0000 
  0   0    
data/animations/SYW_drummer/SG~01~stand~idle.cas                                  0      0       +0.0000   +0.0000   +0.0000         0 +0.0000    0   0  +0.0000      1820   32586 +0.0000  +0.0000  +1.0000 
  1   
 5  0  0  0 14  0 14  0 scratch_head              0  0  0    
data/animations/SYW_drummer/SG~01~stand~idle.cas                                  0      0       +0.0000   +0.0000   +0.0000         0 +0.0000    0   0  +0.0000      1820   32586 +0.0000  +0.0000  +1.0000 
  1   
 5  0  0  0  6  0  6  0 clear_throat              0  0  0    
data/animations/SYW_drummer/SG~01~stand~idle.cas                                  0      0       +0.0000   +0.0000   +0.0000         0 +0.0000    0   0  +0.0000      1820   32586 +0.0000  +0.0000  +1.0000 
  1   
 1  0  0  0  4  0  8  0 ANIM_IDLE_CLOTH           0  1  0    
data/animations/SYW_drummer/SG~01~stand~idle.cas                                  0      0       +0.0000   +0.0000   +0.0000         0 +0.0000    0   0  +0.0000      1820   32586 +0.0000  +0.0000  +1.0000 
  2   
 5  0  0  0  9  0  9  0 neck_crack                0  0  0 
 5  0  0  0 10  0 14  0 stretch_arms              0  1  0    
data/animations/SYW_drummer/SG~01~stand~idle.cas                                  0      0       +0.0000   +0.0000   +0.0000         0 +0.0000    0   0  +0.0000      1820   32586 +0.0000  +0.0000  +1.0000 
  2   
 5  0  0  0  7  0  7  0 neck_crack                0  0  0 
 5  0  0  0  8  0 12  0 stretch_back              0  1  0    
data/animations/SYW_drummer/SG~01~stand~idle.cas                                  0      0       +0.0000   +0.0000   +0.0000         0 +0.0000    0   0  +0.0000      1820   32586 +0.0000  +0.0000  +1.0000 
  2   
 5  0  0  0  8  0  8  0 neck_crack                0  0  0 
 5  0  0  0 10  0 12  0 stretch_arms              0  1  0    
data/animations/SYW_drummer/SG~01~stand~idle.cas                                  0      0       +0.0000   +0.0000   +0.0000         0 +0.0000    0   0  +0.0000      1820   32586 +0.0000  +0.0000  +1.0000 
  1   
 5  0  0  0  2  0  2  0 stretch_arms              0  0  0    
data/animations/SYW_drummer/SG~01~stand~idle.cas                                  0      0       +0.0000   +0.0000   +0.0000         0 +0.0000    0   0  +0.0000      1820   32586 +0.0000  +0.0000  +1.0000 
  1   
 5  0  0  0  4  0  4  0 sneeze                    0  0  0    
data/animations/SYW_drummer/SG~01~stand~idle.cas                                  0      0       +0.0000   +0.0000   +0.0000         0 +0.0000    0   0  +0.0000      1820   32586 +0.0000  +0.0000  +1.0000 
  1   
 5  0  0  0 16  0 16  0 scratch_head              0  0  0    
data/animations/SYW_drummer/SG~08~~stand~idle~Turn~right~90.cas                   0  16383       +0.0000   +0.0000   +0.0000         0 +0.0000    0   0  +0.0000      1820   32586 +0.0000  +0.0000  +1.0000 
  3   
 2  0  0  0 12  0 16  0 unit_march                0  1  0 
 2  0  0  0 20  0 26  0 unit_march                0  1  0 
 2  0  0  0 30  0 32  0 unit_march                0  1  0    0 
data/animations/SYW_drummer/SG~09~~stand~idle~Turn~Left~90.cas                    0  49153       +0.0000   +0.0000   +0.0000         0 +0.0000    0   0  +0.0000      1820   32586 +0.0000  +0.0000  +1.0000 
  2   
 2  0  0  0 10  0 14  0 unit_march                0  1  0 
 2  0  0  0 20  0 24  0 unit_march                0  1  0    0 
data/animations/SYW_drummer/SG~36~stand~2~march.cas                               0      0       +0.0000   +0.0000   +0.0000         0 +0.0000    0   0  +0.0000      1820   32586 +0.0000  +0.0000  +1.0000 
  3   
 2  0  0  0  1  0  2  0 drum_advance              0  1  0 
 2  0  0  0 16  0 20  0 unit_march                0  1  0 
 2  0  0  0 26  0 30  0 unit_march                0  1  0    
data/animations/SYW_drummer/SG~03~march.cas                                       0      0       +0.0000   +0.0000   +0.0000         0 +0.0000    0   0  +0.0000      1820   32586 +0.0000  +0.0000  +1.0000 
  2   
 2  0  0  0  6  0 10  0 unit_march                0  1  0 
 2  0  0  0 16  0 20  0 unit_march                0  1  0    
data/animations/SYW_drummer/SG~38~march~2~stand.cas                               0      0       +0.0000   +0.0000   +0.0000         0 +0.0000    0   0  +0.0000      1820   32586 +0.0000  +0.0000  +1.0000 
  3   
 2  0  0  0  1  0  2  0 drum_halt                 0  1  0 
 2  0  0  0  6  0  8  0 unit_march                0  1  0 
 2  0  0  0 12  0 14  0 unit_march                0  1  0    0 0 0 
data/animations/LID_35~Stand~2~Run.cas                                            0      0       +0.0000   +0.0000   +0.0000         0 +0.0000    0   0  +0.0000      1820   32586 +0.0000  +0.0000  +1.0000 
  3   
 2  0  0  0 12  0 16  0 unit_run                  0  1  0 
 2  0  0  0 18  0 22  0 unit_run                  0  1  0 
 2  0  0  0 25  0 27  0 unit_march                0  1  0    
data/animations/LID_04~Run~Loop.cas                                               0      0       +0.0000   +0.0000   +0.0000         0 +0.0000    0   0  +0.0000      1820   32586 +0.0000  +0.0000  +1.0000 
  2   
 2  0  0  0  5  0  6  0 unit_run                  0  1  0 
 2  0  0  0 10  0 11  0 unit_run                  0  1  0    
data/animations/LID_39~Run~2~Stand.cas                                            0      0       +0.0000   +0.0000   +0.0000         0 +0.0000    0   0  +0.0000      1820   32586 +0.0000  +0.0000  +1.0000 
  6   
 2  0  0  0  1  0  2  0 drum_halt                 0  1  0 
 2  0  0  0  6  0  8  0 unit_run                  0  1  0 
 2  0  0  0 14  0 16  0 unit_run                  0  1  0 
 2  0  0  0 22  0 24  0 unit_run                  0  1  0 
 2  0  0  0 28  0 32  0 unit_march                0  1  0 
 2  0  0  0 34  0 38  0 unit_march                0  1  0    
data/animations/LID_40~Run~2~march.cas                                            0      0       +0.0000   +0.0000   +0.0000         0 +0.0000    0   0  +0.0000      1820   32586 +0.0000  +0.0000  +1.0000 
  4   
 2  0  0  0  1  0  2  0 drum_advance              0  1  0 
 2  0  0  0  6  0  8  0 unit_run                  0  1  0 
 2  0  0  0 14  0 16  0 unit_run                  0  1  0 
 2  0  0  0 24  0 28  0 unit_march                0  1  0    
data/animations/LID_38~March~2~Run.cas                                            0      0       +0.0000   +0.0000   +0.0000         0 +0.0000    0   0  +0.0000      1820   32586 +0.0000  +0.0000  +1.0000 
  3   
 2  0  0  0  8  0 12  0 unit_march                0  1  0 
 2  0  0  0 14  0 18  0 unit_march                0  1  0 
 2  0  0  0 24  0 26  0 unit_run                  0  1  0    
data/animations/SYW_drummer/SG~51~stand~ready~2~stand~idle.cas                    0      0       +0.0000   +0.0000   +0.0000         0 +0.0000    0   0  +0.0000      1820   32586 +0.0000  +0.0000  +1.0000 
  1   
 2  0  0  0 14  0 15  0 unit_march                0  0  0    
data/animations/SYW_drummer/SG~02~stand~ready.cas                                 0      0       +0.0000   +0.0000   +0.0000         0 +0.0000    0   0  +0.0000      1820   32586 +0.0000  +0.0000  +1.0000 
  0   0 0 0 0 0 0 0 0 0 0 0 0    
data/animations/SYW_drummer/SG~10~Standing~raedy~turn~right~90.cas                0  16384       +0.0000   +0.0000   +0.0000         0 +0.0000    0   0  +0.0000      1820   32586 +0.0000  +0.0000  +1.0000 
  3   
 2  0  0  0  1  0  2  0 drum_rface                0  1  0 
 2  0  0  0  6  0  7  0 unit_march                0  1  0 
 2  0  0  0  8  0  9  0 unit_march                0  1  0    
data/animations/SYW_drummer/SG~11~Standing~raedy~turn~Left~90.cas                 0  49152       +0.0000   +0.0000   +0.0000         0 +0.0000    0   0  +0.0000      1820   32586 +0.0000  +0.0000  +1.0000 
  3   
 2  0  0  0  1  0  2  0 drum_lface                0  1  0 
 2  0  0  0  6  0  7  0 unit_march                0  1  0 
 2  0  0  0  8  0  9  0 unit_march                0  1  0    
data/animations/SYW_drummer/SG~35~stand~2~stand~ready.cas                         0      0       +0.0000   +0.0000   +0.0000         0 +0.0000    0   0  +0.0000      1820   32586 +0.0000  +0.0000  +1.0000 
  1   
 2  0  0  0  6  0 10  0 unit_march                0  1  0    
data/animations/LID_50_Stand~Ready~2~Adance.cas                                   0      0       +0.0000   +0.0000   +0.0000         0 +0.0000    0   0  +0.0000      1820   32586 +0.0000  +0.0000  +1.0000 
  1   
 2  0  0  0 24  0 28  0 unit_march                0  1  0    
data/animations/LID_07_Adance.cas                                                 0      0       +0.0000   +0.0000   +0.0000         0 +0.0000    0   0  +0.0000      1820   32586 +0.0000  +0.0000  +1.0000 
  2   
 2  0  0  0 12  0 16  0 unit_march                0  1  0 
 2  0  0  0 28  0 32  0 unit_march                0  1  0    
data/animations/LID_45_Advance~2~Stand~Ready.cas                                  0      0       +0.0000   +0.0000   +0.0000         0 +0.0000    0   0  +0.0000      1820   32586 +0.0000  +0.0000  +1.0000 
  1   
 2  0  0  0 12  0 16  0 unit_march                0  1  0    
data/animations/LID_49~Stand~ready~2~Retreat.cas                                  0      0       +0.0000   +0.0000   +0.0000         0 +0.0000    0   0  +0.0000      1820   32586 +0.0000  +0.0000  +1.0000 
  1   
 2  0  0  0 22  0 24  0 unit_march                0  1  0    
data/animations/LID_06_Retreat.cas                                                0      0       +0.0000   +0.0000   +0.0000         0 +0.0000    0   0  +0.0000      1820   32586 +0.0000  +0.0000  +1.0000 
  2   
 2  0  0  0 16  0 20  0 unit_march                0  1  0 
 2  0  0  0 30  0 36  0 unit_march                0  1  0    
data/animations/LID_44_Retreat~2~Stand~Ready.cas                                  0      0       +0.0000   +0.0000   +0.0000         0 +0.0000    0   0  +0.0000      1820   32586 +0.0000  +0.0000  +1.0000 
  1   
 2  0  0  0 15  0 15  0 unit_march                0  0  0    
data/animations/LID_25_Shuffle~forward.cas                                        0      0       +0.0000   +0.0000   +0.0000         0 +0.0000    0   0  +0.0000      1820   32586 +0.0000  +0.0000  +1.0000 
  2   
 2  0  0  0  7  0  7  0 unit_march                0  0  0 
 2  0  0  0 12  0 12  0 unit_march                0  0  0    
data/animations/LID_26_Shuffle~back.cas                                           0      0       +0.0000   +0.0000   +0.0000         0 +0.0000    0   0  +0.0000      1820   32586 +0.0000  +0.0000  +1.0000 
  2   
 2  0  0  0  8  0  8  0 unit_march                0  0  0 
 2  0  0  0 14  0 14  0 unit_march                0  0  0    
data/animations/LID_27_Shuffle~left.cas                                           0      0       +0.0000   +0.0000   +0.0000         0 +0.0000    0   0  +0.0000      1820   32586 +0.0000  +0.0000  +1.0000 
  2   
 2  0  0  0 11  0 11  0 unit_march                0  0  0 
 2  0  0  0 16  0 16  0 unit_march                0  0  0    
data/animations/LID_28_Shuffle~Right.cas                                          0      0       +0.0000   +0.0000   +0.0000         0 +0.0000    0   0  +0.0000      1820   32586 +0.0000  +0.0000  +1.0000 
  2   
 2  0  0  0  9  0  9  0 unit_march                0  0  0 
 2  0  0  0 16  0 16  0 unit_march                0  0  0    0 0 0 0 0 
data/animations/LID_18_Stabbing~move~downwards~45.cas                             0      0       +1.0734   -0.4260   +1.1866      7670 +1.6000   14   0  +0.1390      1820   32586 +0.0000  +0.0000  +1.0000 
  2   
 1  0  0  0 12  0 12  0 ANIM_SWOOSH               0  0  0 
 1  0  0  0 14  0 16  0 ANIM_SCRAPE               0  1  0    
data/animations/LID_19_Slashing~Downwards~45.cas                                  0      0       -0.4560   -0.4780   +1.5337     -3014 +1.6000   15   0  +0.2575      1820   32586 +0.0000  +0.0000  +1.0000 
  2   
 1  0  0  0 14  0 14  0 ANIM_SWOOSH               0  0  0 
 1  0  0  0 15  0 16  0 ANIM_SCRAPE               0  1  0    
data/animations/LID_12~horizontla~stab~attack.cas                                 0      0       +0.1706   +0.2750   +1.5909      1114 +1.6000   12   0  +0.4006      1820   32586 +0.0000  +0.0000  +1.0000 
  2   
 1  0  0  0 10  0 10  0 ANIM_SWOOSH               0  0  0 
 1  0  0  0 12  0 14  0 ANIM_SCRAPE               0  1  0    
data/animations/LID_13_Slashing~Attack~Horizontal.cas                             0      0       +0.1086   +0.0180   +1.5963       709 +1.6000   14   0  +0.3693      1820   32586 +0.0000  +0.0000  +1.0000 
  2   
 1  0  0  0 12  0 16  0 ANIM_SCRAPE               0  1  0 
 1  0  0  0 12  0 12  0 ANIM_SWOOSH               0  0  0    
data/animations/LID_15_Stabbing~upwards~45.cas                                    0      0       +0.3592   +1.2000   +1.5592      2362 +1.6000   12   0  +0.2820      1820   32586 +0.0000  +0.0000  +1.0000 
  2   
 1  0  0  0  8  0  8  0 ANIM_SWOOSH               0  0  0 
 1  0  0  0 10  0 12  0 ANIM_SCRAPE               0  1  0    
data/animations/LID_16_slashing~upwards~45.cas                                    0      0       -0.5537   +1.1510   +1.5011     -3686 +1.6000   14   0  +0.6419      1820   32586 +0.0000  +0.0000  +1.0000 
  3   
 4  0  0  0 10  0 12  0 INDIVIDUAL_ATTACK_GRUNT   0  1  0 
 1  0  0  0 14  0 14  0 ANIM_SWOOSH               0  0  0 
 1  0  0  0 14  0 18  0 ANIM_SCRAPE               0  1  0    0 0 0 0 0 0 0 0 0 0 0 0 0 0 0 0 0 0 
data/animations/LIS~Run~attack.cas                                                0      0       -0.4413   -0.2410   +1.5379     -2915 +1.6000   10   0  +2.7781      1820   32586 +0.0000  +0.0000  +1.0000 
  6   
 4  0  0  0  1  0  5  0 INDIVIDUAL_ATTACK_SCREAM  0  1  0 
 2  0  0  0  4  0  6  0 unit_run                  0  1  0 
 1  0  0  0  8  0  8  0 ANIM_SWOOSH               0  0  0 
 1  0  0  0  9  0 11  0 ANIM_SCRAPE               0  1  0 
 2  0  0  0 10  0 12  0 unit_run                  0  1  0 
 2  0  0  0 16  0 18  0 unit_run                  0  1  0    0 0 0 
data/animations/DIE~02_03~stabbed~dying~forwards.cas                              0      0       +0.0000   +0.0000   +0.0000         0 +0.0000    0   0  +0.0000      1820   32586 +0.0000  +0.0000  +1.0000 
  2   
 4  0  0  0  2  0  2  0 INDIVIDUAL_DEATH          0  0  0 
 2  0  0  0 46  0 46  0 fall                      0  0  0    
data/animations/DIE~Forwards.cas                                                  0  18210       +0.0000   +0.0000   +0.0000         0 +0.0000    0   0  +0.0000      1820   32586 +0.0000  +0.0000  +1.0000 
  2   
 4  0  0  0  2  0  2  0 INDIVIDUAL_DEATH          0  0  0 
 2  0  0  0 15  0 15  0 fall                      0  0  0    
data/animations/DIE~02_01~dying~backwards.cas                                     0  32990       +0.0000   +0.0000   +0.0000         0 +0.0000    0   0  +0.0000      1820   32586 +0.0000  +0.0000  +1.0000 
  2   
 4  0  0  0  2  0  2  0 Death_Cry                 0  0  0 
 2  0  0  0 11  0 11  0 fall                      0  0  0    
data/animations/DIE~01~dying~Backwards2.cas                                       0  23260       +0.0000   +0.0000   +0.0000         0 +0.0000    0   0  +0.0000      1820   32586 +0.0000  +0.0000  +1.0000 
  2   
 4  0  0  0  2  0  2  0 INDIVIDUAL_DEATH          0  0  0 
 2  0  0  0  6  0  6  0 fall                      0  0  0    
data/animations/DIE~01~dying~to~his~right.cas                                     0  12923       +0.0000   +0.0000   +0.0000         0 +0.0000    0   0  +0.0000      1820   32586 +0.0000  +0.0000  +1.0000 
  2   
 4  0  0  0  2  0  2  0 INDIVIDUAL_DEATH          0  0  0 
 2  0  0  0 12  0 12  0 fall                      0  0  0    
data/animations/DIE~Back~right.cas                                                0  32944       +0.0000   +0.0000   +0.0000         0 +0.0000    0   0  +0.0000      1820   32586 +0.0000  +0.0000  +1.0000 
  2   
 4  0  0  0  2  0  2  0 INDIVIDUAL_DEATH          0  0  0 
 2  0  0  0  8  0  8  0 fall                      0  0  0    0 0 
data/animations/Flailing~Cycle.cas                                                0      0       +0.0000   +0.0000   +0.0000         0 +0.0000    0   0  +0.0000      1820   32586 +0.0000  +0.0000  +1.0000 
  1   
 4  0  0  0  0  0  2  0 Fall_Scream               0  1  1    
data/animations/Flailing~Cycle~to~land.cas                                        0  22126       +0.0000   +0.0000   +0.0000         0 +0.0000    0   0  +0.0000      1820   32586 +0.0000  +0.0000  +1.0000 
  2   
 1  0  0  0  2  0  2  0 ANIM_FALL_SQUASH          0  0  0 
 4  0  0  0  4  0  4  0 INDIVIDUAL_FALL_GRUNT     0  0  0    0 
data/animations/man_trampled_down_roll_from_front.CAS                             0  19220       +0.0000   +0.0000   +0.0000         0 +0.0000    0   0  +0.0000      1820   32586 +0.0000  +0.0000  +1.0000 
  3   
 4  0  0  0  2  0  2  0 Death_Cry                 0  0  0 
 2  0  0  0 10  0 10  0 fall                      0  0  0 
 2  0  0  0 20  0 20  0 fall                      0  0  0    0 0 0 0 
data/animations/LID_Charge~Death.cas                                              0      0       +0.0000   +0.0000   +0.0000         0 +0.0000    0   0  +0.0000      1820   32586 +0.0000  +0.0000  +1.0000 
  4   
 2  0  0  0  4  0  4  0 unit_run                  0  0  0 
 2  0  0  0  9  0  9  0 unit_run                  0  0  0 
 4  0  0  0 10  0 10  0 Death_Cry                 0  0  0 
 2  0  0  0 16  0 16  0 fall                      0  0  0    0 
data/animations/LID_05_Charge.cas                                                 0      0       +0.0000   +0.0000   +0.0000         0 +0.0000    0   0  +0.0000      1820   32586 +0.0000  +0.0000  +1.0000 
  2   
 2  0  0  0  4  0  6  0 unit_run                  0  1  0 
 2  0  0  0  9  0 11  0 unit_run                  0  1  0    
data/animations/LID_51~stand~ready~2~charge.cas                                   0  60170       +0.0000   +0.0000   +0.0000         0 +0.0000    0   0  +0.0000      1820   32586 +0.0000  +0.0000  +1.0000 
  4   
 4  0  0  0  0  0 10  0 Inviduals_Charge          0  1  0 
 2  0  0  0 18  0 22  0 unit_march                0  1  0 
 2  0  0  0 24  0 26  0 unit_run                  0  1  0 
 2  0  0  0 28  0 28  0 unit_run                  0  1  0    0 
data/animations/LID_41~Run~2~charge.cas                                           0      0       +0.0000   +0.0000   +0.0000         0 +0.0000    0   0  +0.0000      1820   32586 +0.0000  +0.0000  +1.0000 
  3   
 4  0  0  0  0  0 10  0 Inviduals_Charge          0  1  0 
 2  0  0  0  4  0  6  0 unit_run                  0  1  0 
 2  0  0  0 10  0 12  0 unit_run                  0  1  0    
data/animations/LID_42~charge~2~stand~ready.cas                                   0   5366       +0.0000   +0.0000   +0.0000         0 +0.0000    0   0  +0.0000      1820   32586 +0.0000  +0.0000  +1.0000 
  6   
 1  0  0  0  0  0  0  0 ANIM_ARCHER_AIM           0  0  0 
 2  0  0  0  4  0  4  0 unit_run                  0  0  0 
 2  0  0  0 10  0 10  0 unit_run                  0  0  0 
 2  0  0  0 14  0 14  0 unit_run                  0  0  0 
 2  0  0  0 18  0 20  0 unit_march                0  1  0 
 2  0  0  0 22  0 22  0 unit_march                0  0  0    
data/animations/LID_21_Charge~attack.cas                                          0   5486       -0.1423   +0.2290   +1.5937      -929 +1.6000   16   0  +3.8684      1820   32586 +0.0000  +0.0000  +1.0000 
 10   
 4  0  0  0  2  0 14  0 INDIVIDUAL_ATTACK_SCREAM  0  1  0 
 2  0  0  0  4  0  6  0 unit_run                  0  1  0 
 2  0  0  0  8  0 10  0 unit_run                  0  1  0 
 1  0  0  0 13  0 13  0 ANIM_SWOOSH               0  0  0 
 2  0  0  0 14  0 16  0 unit_run                  0  1  0 
 1  0  0  0 17  0 19  0 ANIM_SCRAPE               0  1  0 
 2  0  0  0 18  0 20  0 unit_run                  0  1  0 
 2  0  0  0 26  0 28  0 unit_march                0  1  0 
 2  0  0  0 31  0 33  0 unit_march                0  1  0 
 2  0  0  0 34  0 36  0 unit_march                0  1  0    
data/animations/LID_21_Charge~Jump~attack.cas                                     0   3596       +0.0000   +0.0000   +0.0000         0 +0.0000   21   0  +4.1258      1820   32586 +0.0000  +0.0000  +1.0000 
  6   
 2  0  0  0  4  0  4  0 unit_run                  0  0  0 
 4  0  0  0  8  0  8  0 Attack_Scream             0  0  0 
 1  0  0  0 16  0 16  0 ANIM_SWOOSH               0  0  0 
 1  0  0  0 20  0 20  0 ANIM_SCRAPE               0  0  0 
 2  0  0  0 20  0 20  0 unit_run                  0  0  0 
 2  0  0  0 21  0 21  0 unit_run                  0  0  0    0 0 0 0 0 0 0 0 0 0 0 0 0 0 0 0 0 0 0 0 0 0 0 0 0 0 0 0 0 0 0 0 0 0 0 
data/animations/LID~82~stand~to~hide.cas                                          0      0       +0.0000   +0.0000   +0.0000         0 +0.0000    0   0  +0.0000      1820   32586 +0.0000  +0.0000  +1.0000 
  1   
 2  0  0  0  1  0  2  0 drum_hide                 0  1  0    
data/animations/LID~83~hide.cas                                                   0      0       +0.0000   +0.0000   +0.0000         0 +0.0000    0   0  +0.0000      1820   32586 +0.0000  +0.0000  +1.0000 
  0      
data/animations/LID~84~hide~to~stand.cas                                          0      0       +0.0000   +0.0000   +0.0000         0 +0.0000    0   0  +0.0000      1820   32586 +0.0000  +0.0000  +1.0000 
  1   
 2  0  0  0  1  0  2  0 drum_rise                 0  1  0    
data/animations/LID_32~Stand~ready~back~impact.cas                                0      0       +0.0000   +0.0000   +0.0000         0 +0.0000    0   0  +0.0000      1820   32586 +0.0000  +0.0000  +1.0000 
  2   
 4  0  0  0  2  0  2  0 INDIVIDUAL_GRUNT          0  0  0 
 2  0  0  0  4  0  6  0 unit_march                0  1  0    
data/animations/LID_32M~Stand~ready~back~impact.cas                               0      0       +0.0000   +0.0000   +0.0000         0 +0.0000    0   0  +0.0000      1820   32586 +0.0000  +0.0000  +1.0000 
  3   
 4  0  0  0  2  0  4  0 INDIVIDUAL_GRUNT          0  1  0 
 2  0  0  0  6  0  8  0 unit_march                0  1  0 
 2  0  0  0  8  0 10  0 unit_march                0  1  0    
data/animations/LID_32~Stand~ready~back~right~impact.cas                          0      0       +0.0000   +0.0000   +0.0000         0 +0.0000    0   0  +0.0000      1820   32586 +0.0000  +0.0000  +1.0000 
  1   
 4  0  0  0  2  0  2  0 INDIVIDUAL_GRUNT          0  0  0    
data/animations/LID_32M~Stand~ready~back~right~impact.cas                         0      0       +0.0000   +0.0000   +0.0000         0 +0.0000    0   0  +0.0000      1820   32586 +0.0000  +0.0000  +1.0000 
  2   
 2  0  0  0  6  0  6  0 unit_march                0  0  0 
 4  0  0  0  6  0  6  0 INDIVIDUAL_GRUNT          0  0  0    
data/animations/LID_32~Stand~ready~front~impact.cas                               0      0       +0.0000   +0.0000   +0.0000         0 +0.0000    0   0  +0.0000      1820   32586 +0.0000  +0.0000  +1.0000 
  1   
 4  0  0  0  4  0  4  0 INDIVIDUAL_GRUNT          0  0  0    
data/animations/LID_32M~Stand~ready~front~impact.cas                              0      0       +0.0000   +0.0000   +0.0000         0 +0.0000    0   0  +0.0000      1820   32586 +0.0000  +0.0000  +1.0000 
  3   
 4  0  0  0  2  0  2  0 INDIVIDUAL_GRUNT          0  0  0 
 2  0  0  0  6  0  6  0 unit_march                0  0  0 
 2  0  0  0  8  0  8  0 unit_march                0  0  0    
data/animations/LID_32~Stand~ready~front~left~impact.cas                          0      0       +0.0000   +0.0000   +0.0000         0 +0.0000    0   0  +0.0000      1820   32586 +0.0000  +0.0000  +1.0000 
  1   
 4  0  0  0  2  0  2  0 INDIVIDUAL_GRUNT          0  0  0    
data/animations/LID_32M~Stand~ready~front~left~impact.cas                         0      0       +0.0000   +0.0000   +0.0000         0 +0.0000    0   0  +0.0000      1820   32586 +0.0000  +0.0000  +1.0000 
  1   
 4  0  0  0  4  0  4  0 INDIVIDUAL_GRUNT          0  0  0    
data/animations/Ladder_02~Climb~down.cas                                          0      0       +0.0000   +0.0000   +0.0000         0 +0.0000    0   0  +0.0000      1820   32586 +0.0000  +0.0000  +1.0000 
  2   
 2  0  0  0  6  0  6  0 unit_march                0  0  0 
 2  0  0  0 14  0 14  0 unit_march                0  0  0    
data/animations/Ladder_03~Idle~still.cas                                          0      0       +0.0000   +0.0000   +0.0000         0 +0.0000    0   0  +0.0000      1820   32586 +0.0000  +0.0000  +1.0000 
  0      
data/animations/Ladder_01~Climb~up.cas                                            0      0       +0.0000   +0.0000   +0.0000         0 +0.0000    0   0  +0.0000      1820   32586 +0.0000  +0.0000  +1.0000 
  2   
 2  0  0  0  6  0  6  0 unit_march                0  0  0 
 2  0  0  0 14  0 14  0 unit_march                0  0  0    
data/animations/LID_53~Stand~idle~~to~climb~ladder.cas                            0      0       +0.0000   +0.0000   +0.0000         0 +0.0000    0   0  +0.0000      1820   32586 +0.0000  +0.0000  +1.0000 
  2   
 2  0  0  0 12  0 12  0 unit_march                0  0  0 
 2  0  0  0 20  0 20  0 unit_march                0  0  0    
data/animations/LIS_102~Battlement~2~climb~ladder~leftside.cas                    0  58739       +0.0000   +0.0000   +0.0000         0 +0.0000    0   0  +0.0000      1820   32586 +0.0000  +0.0000  +1.0000 
  3   
 2  0  0  0  9  0  9  0 unit_march                0  0  0 
 2  0  0  0 22  0 22  0 unit_march                0  0  0 
 2  0  0  0 32  0 32  0 unit_march                0  0  0    
data/animations/LID_54~Climb~off~ladder~onto~left~bat~left~2~standready.cas       0   7673       +0.0000   +0.0000   +0.0000         0 +0.0000    0   0  +0.0000      1820   32586 +0.0000  +0.0000  +1.0000 
  2   
 2  0  0  0 12  0 12  0 unit_march                0  0  0 
 2  0  0  0 20  0 20  0 unit_march                0  0  0    
data/animations/LID_56_Climb~down~ladder~2~Stand~ready.cas                        0   7673       +0.0000   +0.0000   +0.0000         0 +0.0000    0   0  +0.0000      1820   32586 +0.0000  +0.0000  +1.0000 
  2   
 2  0  0  0  7  0  7  0 unit_march                0  0  0 
 2  0  0  0 20  0 20  0 unit_march                0  0  0    0 0 0 0 0 0 0 0 0 0 0 0 0 0 0 0 0 0 0 0 0 0 0 0 0 0 0 0 0 0 0 0 0 0 0 0 0 0 0 0 0 0 0 0 0 0 0 0 0 
data/animations/carry_and_artillery/LIS~idle~to~Carry~idle.cas                    0      0       +0.0000   +0.0000   +0.0000         0 +0.0000    0   0  +0.0000      1820   32586 +0.0000  +0.0000  +1.0000 
  0      
data/animations/carry_and_artillery/Carry_01~Stand~idle~empty~hands.cas           0      0       +0.0000   +0.0000   +0.0000         0 +0.0000    0   0  +0.0000      1820   32586 +0.0000  +0.0000  +1.0000 
  0      
data/animations/carry_and_artillery/Carry~idle~to~Stand~LIS~idle.cas              0      0       +0.0000   +0.0000   +0.0000         0 +0.0000    0   0  +0.0000      1820   32586 +0.0000  +0.0000  +1.0000 
  0      
data/animations/carry_and_artillery/Carry_08~Empty~hands~2~carry~object.cas       0      0       +0.0000   +0.0000   +0.0000         0 +0.0000    0   0  +0.0000      1820   32586 +0.0000  +0.0000  +1.0000 
  1   
 5  0  0  0 26  0 30  0 exert                     0  1  0    
data/animations/carry_and_artillery/Carry_02~Stand~carrying~object.cas            0      0       +0.0000   +0.0000   +0.0000         0 +0.0000    0   0  +0.0000      1820   32586 +0.0000  +0.0000  +1.0000 
  0      
data/animations/carry_and_artillery/Carry_04~Stand~2~walk~carrying~object.cas     0      0       +0.0000   +0.0000   +0.0000         0 +0.0000    0   0  +0.0000      1820   32586 +0.0000  +0.0000  +1.0000 
  1   
 2  0  0  0 16  0 20  0 unit_march                0  1  0    
data/animations/carry_and_artillery/Carry_03~Walk~carrying~object.cas             0      0       +0.0000   +0.0000   +0.0000         0 +0.0000    0   0  +0.0000      1820   32586 +0.0000  +0.0000  +1.0000 
  2   
 2  0  0  0  6  0 10  0 unit_march                0  1  0 
 2  0  0  0 20  0 24  0 unit_march                0  1  0    
data/animations/carry_and_artillery/Carry_05~walk~2~stand~carrying~object.cas     0      0       +0.0000   +0.0000   +0.0000         0 +0.0000    0   0  +0.0000      1820   32586 +0.0000  +0.0000  +1.0000 
  1   
 2  0  0  0 10  0 14  0 unit_march                0  1  0    
data/animations/carry_and_artillery/Carry_09~Carry~object~2~Empty~hands.cas       0      0       +0.0000   +0.0000   +0.0000         0 +0.0000    0   0  +0.0000      1820   32586 +0.0000  +0.0000  +1.0000 
  1   
 5  0  0  0 34  0 40  0 relief                    0  1  0    
data/animations/carry_and_artillery/Art_17~Stand~2~Push~heavy~object.cas          0      0       +0.0000   +0.0000   +0.0000         0 +0.0000    0   0  +0.0000      1820   32586 +0.0000  +0.0000  +1.0000 
  3   
 2  0  0  0 26  0 28  0 unit_march                0  1  0 
 5  0  0  0 26  0 32  0 exert                     0  1  0 
 2  0  0  0 84  0 86  0 unit_march                0  1  0    
data/animations/carry_and_artillery/Art_18~Push~heavy~object~loop.cas             0      0       +0.0000   +0.0000   +0.0000         0 +0.0000    0   0  +0.0000      1820   32586 +0.0000  +0.0000  +1.0000 
  3   
 5  0  0  0  1  0 13  0 exert                     0  1  0 
 2  0  0  0  6  0  8  0 unit_march                0  1  0 
 2  0  0  0 12  0 13  0 unit_march                0  1  0    
data/animations/carry_and_artillery/Art_19~Push~heavy~object~2~STAND.cas          0      0       +0.0000   +0.0000   +0.0000         0 +0.0000    0   0  +0.0000      1820   32586 +0.0000  +0.0000  +1.0000 
  3   
 2  0  0  0 16  0 20  0 unit_march                0  1  0 
 5  0  0  0 20  0 26  0 relief                    0  1  0 
 2  0  0  0 32  0 35  0 unit_march                0  1  0    
data/animations/carry_and_artillery/Art_20~stand~2~~Pull.cas                      0      0       +0.0000   +0.0000   +0.0000         0 +0.0000    0   0  +0.0000      1820   32586 +0.0000  +0.0000  +1.0000 
  5   
 2  0  0  0 16  0 20  0 unit_march                0  1  0 
 2  0  0  0 34  0 38  0 unit_march                0  1  0 
 5  0  0  0 46  0 52  0 exert                     0  0  0 
 2  0  0  0 65  0 67  0 unit_march                0  0  0 
 2  0  0  0 78  0 80  0 unit_march                0  1  0    
data/animations/carry_and_artillery/Art_21~Pull~loop.cas                          0      0       +0.0000   +0.0000   +0.0000         0 +0.0000    0   0  +0.0000      1820   32586 +0.0000  +0.0000  +1.0000 
  3   
 2  0  0  0  6  0 10  0 unit_march                0  1  0 
 5  0  0  0 12  0 12  0 2                         0  1  0 
 2  0  0  0 12  0 14  0 unit_march                0  1  0    
data/animations/carry_and_artillery/Art_22~Pull~To~stand.cas                      0      0       +0.0000   +0.0000   +0.0000         0 +0.0000    0   0  +0.0000      1820   32586 +0.0000  +0.0000  +1.0000 
  3   
 2  0  0  0 10  0 14  0 unit_march                0  1  0 
 2  0  0  0 22  0 26  0 unit_march                0  1  0 
 2  0  0  0 38  0 42  0 unit_march                0  1  0    
data/animations/carry_and_artillery/Art_23~carry~01~2~raise~hand~in~air.cas       0  58845       +0.0000   +0.0000   +0.0000         0 +0.0000    0   0  +0.0000      1820   32586 +0.0000  +0.0000  +1.0000 
  0      
data/animations/carry_and_artillery/Art_24~~raise~hand~in~air.cas                 0      0       +0.0000   +0.0000   +0.0000         0 +0.0000    0   0  +0.0000      1820   32586 +0.0000  +0.0000  +1.0000 
  0      
data/animations/carry_and_artillery/Art_25~~raise~hand~to~carry~01.cas            0   6638       +0.0000   +0.0000   +0.0000         0 +0.0000    0   0  +0.0000      1820   32586 +0.0000  +0.0000  +1.0000 
  0      
data/animations/carry_and_artillery/Art_26~carry~01~2~raise~hand~in~air.cas       0      0       +0.0000   +0.0000   +0.0000         0 +0.0000    0   0  +0.0000      1820   32586 +0.0000  +0.0000  +1.0000 
  0      
data/animations/carry_and_artillery/Art_27~raised~hand~in~air~loop.cas            0      0       +0.0000   +0.0000   +0.0000         0 +0.0000    0   0  +0.0000      1820   32586 +0.0000  +0.0000  +1.0000 
  0      
data/animations/carry_and_artillery/Art_28~raised~hand~to~carry~01.cas            0      0       +0.0000   +0.0000   +0.0000         0 +0.0000    0   0  +0.0000      1820   32586 +0.0000  +0.0000  +1.0000 
  0      
data/animations/carry_and_artillery/ballista_crew_left_stand2crank.CAS            0      0       +0.0000   +0.0000   +0.0000         0 +0.0000    0   0  +0.0000      1820   32586 +0.0000  +0.0000  +1.0000 
  1   
 2  0  0  0 18  0 22  0 unit_march                0  1  0    
data/animations/carry_and_artillery/ballista_crew_left_crank_loop.CAS             0      0       +0.0000   +0.0000   +0.0000         0 +0.0000    0   0  +0.0000      1820   32586 +0.0000  +0.0000  +1.0000 
  0      
data/animations/carry_and_artillery/ballista_crew_left_fire_idle.CAS              0      0       +0.0000   +0.0000   +0.0000         0 +0.0000    0   0  +0.0000      1820   32586 +0.0000  +0.0000  +1.0000 
  0      
data/animations/carry_and_artillery/ballista_crew_right_stand_2_crank.CAS         0      0       +0.0000   +0.0000   +0.0000         0 +0.0000    0   0  +0.0000      1820   32586 +0.0000  +0.0000  +1.0000 
  1   
 2  0  0  0 34  0 36  0 unit_march                0  1  0    
data/animations/carry_and_artillery/ballista_crew_right_crank_loop.CAS            0      0       +0.0000   +0.0000   +0.0000         0 +0.0000    0   0  +0.0000      1820   32586 +0.0000  +0.0000  +1.0000 
  0      
data/animations/carry_and_artillery/ballista_crew_right_fire_idle.CAS             0      0       +0.0000   +0.0000   +0.0000         0 +0.0000    0   0  +0.0000      1820   32586 +0.0000  +0.0000  +1.0000 
  0      
data/animations/carry_and_artillery/scorpion_crew_01_stand2crank.CAS              0      0       +0.0000   +0.0000   +0.0000         0 +0.0000    0   0  +0.0000      1820   32586 +0.0000  +0.0000  +1.0000 
  1   
 2  0  0  0 11  0 13  0 unit_march                0  1  0    
data/animations/carry_and_artillery/scorpion_crew_02_crank.CAS                    0      0       +0.0000   +0.0000   +0.0000         0 +0.0000    0   0  +0.0000      1820   32586 +0.0000  +0.0000  +1.0000 
  0      
data/animations/carry_and_artillery/scorpion_crew_03_crank2fire_idle.CAS          0      0       +0.0000   +0.0000   +0.0000         0 +0.0000    0   0  +0.0000      1820   32586 +0.0000  +0.0000  +1.0000 
  0      
data/animations/carry_and_artillery/scorpion_crew_04_fire_idle.CAS                0      0       +0.0000   +0.0000   +0.0000         0 +0.0000    0   0  +0.0000      1820   32586 +0.0000  +0.0000  +1.0000 
  0      
data/animations/carry_and_artillery/scorpion_crew_05_fire_commence.CAS            0      0       +0.0000   +0.0000   +0.0000         0 +0.0000    0   0  +0.0000      1820   32586 +0.0000  +0.0000  +1.0000 
  0      
data/animations/carry_and_artillery/scorpion_crew_06_fire_recover.CAS             0      0       +0.0000   +0.0000   +0.0000         0 +0.0000    0   0  +0.0000      1820   32586 +0.0000  +0.0000  +1.0000 
  0      
data/animations/carry_and_artillery/Art_16~Stand~idle~release~crank.cas           0      0       +0.0000   +0.0000   +0.0000         0 +0.0000    0   0  +0.0000      1820   32586 +0.0000  +0.0000  +1.0000 
  4   
 2  0  0  0 16  0 17  0 unit_march                0  1  0 
 2  0  0  0 21  0 23  0 unit_march                0  1  0 
 2  0  0  0 47  0 49  0 unit_march                0  1  0 
 2  0  0  0 58  0 60  0 unit_march                0  1  0    
data/animations/LIS~01~Front~step.cas                                             0      0       +0.0000   +0.0000   +0.0000         0 +0.0000    0   0  +0.0000      1820   32586 +0.0000  +0.0000  +1.0000 
  2   
 2  0  0  0  8  0 10  0 unit_march                0  1  0 
 2  0  0  0 19  0 21  0 unit_march                0  1  0    
data/animations/LIS~01~Back~step.cas                                              0      0       +0.0000   +0.0000   +0.0000         0 +0.0000    0   0  +0.0000      1820   32586 +0.0000  +0.0000  +1.0000 
  2   
 2  0  0  0  9  0 11  0 unit_march                0  1  0 
 2  0  0  0 20  0 22  0 unit_march                0  1  0    
data/animations/LIS~01~Left~step.cas                                              0      0       +0.0000   +0.0000   +0.0000         0 +0.0000    0   0  +0.0000      1820   32586 +0.0000  +0.0000  +1.0000 
  2   
 2  0  0  0  9  0 13  0 unit_march                0  1  0 
 2  0  0  0 20  0 24  0 unit_march                0  1  0    
data/animations/LIS~01~Right~step.cas                                             0      0       +0.0000   +0.0000   +0.0000         0 +0.0000    0   0  +0.0000      1820   32586 +0.0000  +0.0000  +1.0000 
  2   
 2  0  0  0  9  0 13  0 unit_march                0  1  0 
 2  0  0  0 20  0 24  0 unit_march                0  1  0    
data/animations/LID_94_signal1.CAS                                                0      0       +0.0000   +0.0000   +0.0000         0 +0.0000    0   0  +0.0000      1820   32586 +0.0000  +0.0000  +1.0000 
  0      
data/animations/LID_97_signal4.CAS                                                0      0       +0.0000   +0.0000   +0.0000         0 +0.0000    0   0  +0.0000      1820   32586 +0.0000  +0.0000  +1.0000 
  0      
data/animations/LID_95_signal2.CAS                                                0      0       +0.0000   +0.0000   +0.0000         0 +0.0000    0   0  +0.0000      1820   32586 +0.0000  +0.0000  +1.0000 
  1   
 2  0  0  0  1  0  2  0 drum_rally                0  1  0    
data/animations/LID_96_signal3.CAS                                                0      0       +0.0000   +0.0000   +0.0000         0 +0.0000    0   0  +0.0000      1820   32586 +0.0000  +0.0000  +1.0000 
  0   0 0 0 0    
data/animations/carry_and_artillery/ballista_crew_left_fire_idle.CAS              0      0       +0.0000   +0.0000   +0.0000         0 +0.0000    0   0  +0.0000      1820   32586 +0.0000  +0.0000  +1.0000 
  0      
data/animations/carry_and_artillery/ballista_crew_left_fire_commence.CAS          0      0       +0.0000   +0.0000   +0.0000         0 +0.0000    0   0  +0.0000      1820   32586 +0.0000  +0.0000  +1.0000 
  0      
data/animations/carry_and_artillery/ballista_crew_left_fire_recover.CAS           0      0       +0.0000   +0.0000   +0.0000         0 +0.0000    0   0  +0.0000      1820   32586 +0.0000  +0.0000  +1.0000 
  1   
 2  0  0  0 33  0 36  0 unit_march                0  1  0    
data/animations/carry_and_artillery/ballista_crew_right_fire_idle.CAS             0      0       +0.0000   +0.0000   +0.0000         0 +0.0000    0   0  +0.0000      1820   32586 +0.0000  +0.0000  +1.0000 
  0      
data/animations/carry_and_artillery/ballista_crew_right_fire_commence.CAS         0      0       +0.0000   +0.0000   +0.0000         0 +0.0000    0   0  +0.0000      1820   32586 +0.0000  +0.0000  +1.0000 
  1   
 2  0  0  0 16  0 19  0 unit_march                0  1  0    
data/animations/carry_and_artillery/ballista_crew_right_fire_recover.CAS          0      0       +0.0000   +0.0000   +0.0000         0 +0.0000    0   0  +0.0000      1820   32586 +0.0000  +0.0000  +1.0000 
  1   
 2  0  0  0 20  0 23  0 unit_march                0  1  0    
data/animations/LIS_108_guard_high.CAS                                            0      0       +0.0000   +0.0000   +0.0000         0 +0.0000    0   0  +0.0000      1820   32586 +0.0000  +0.0000  +1.0000 
  0      
data/animations/LIS_109_guard_low.CAS                                             0      0       +0.0000   +0.0000   +0.0000         0 +0.0000    0   0  +0.0000      1820   32586 +0.0000  +0.0000  +1.0000 
  0      
data/animations/LIS_112_dodge.CAS                                                 0      0       +0.0000   +0.0000   +0.0000         0 +0.0000    0   0  +0.0000      1820   32586 +0.0000  +0.0000  +1.0000 
  0      
data/animations/LIS_112_dodge.CAS                                                 0      0       +0.0000   +0.0000   +0.0000         0 +0.0000    0   0  +0.0000      1820   32586 +0.0000  +0.0000  +1.0000 
  0      
data/animations/LIS_111_feint.CAS                                                 0      0       +0.0000   +0.0000   +0.0000         0 +0.0000    0   0  +0.0000      1820   32586 +0.0000  +0.0000  +1.0000 
  1   
 1  0  0  0  3  0  3  0 ANIM_SWOOSH               0  0  0    
data/animations/LIS_111_feint.CAS                                                 0      0       +0.0000   +0.0000   +0.0000         0 +0.0000    0   0  +0.0000      1820   32586 +0.0000  +0.0000  +1.0000 
  1   
 1  0  0  0  3  0  3  0 ANIM_SWOOSH               0  0  0    
data/animations/LIS_110_combat_step_back.CAS                                      0      0       +0.0000   +0.0000   +0.0000         0 +0.0000    0   0  +0.0000      1820   32586 +0.0000  +0.0000  +1.0000 
  1   
 2  0  0  0  7  0  7  0 unit_march                0  0  0    
data/animations/LIS_113_knockdown_launch.CAS                                      0      0       +0.0000   +0.0000   +0.0000         0 +0.0000    0   0  +0.0000      1820   32586 +0.0000  +0.0000  +1.0000 
  2   
 4  0  0  0  2  0  2  0 INDIVIDUAL_GRUNT          0  0  0 
 2  0  0  0 10  0 10  0 fall                      0  0  0    
data/animations/LIS_116_knockdown.CAS                                             0      0       +0.0000   +0.0000   +0.0000         0 +0.0000    0   0  +0.0000      1820   32586 +0.0000  +0.0000  +1.0000 
  2   
 4  0  0  0  2  0  2  0 INDIVIDUAL_GRUNT          0  0  0 
 2  0  0  0  8  0  8  0 fall                      0  0  0    
data/animations/LIS_114_knockdown_idle.CAS                                        0      0       +0.0000   +0.0000   +0.0000         0 +0.0000    0   0  +0.0000      1820   32586 +0.0000  +0.0000  +1.0000 
  0      
data/animations/LIS_115_knockdown_idle_2_Stand_ready.CAS                          0      0       +0.0000   +0.0000   +0.0000         0 +0.0000    0   0  +0.0000      1820   32586 +0.0000  +0.0000  +1.0000 
  1   
 2  0  0  0 24  0 24  0 unit_march                0  0  0    
data/animations/LID_57_06~Taunt~1.cas                                             0      0       +0.0000   +0.0000   +0.0000         0 +0.0000    0   0  +0.0000      1820   32586 +0.0000  +0.0000  +1.0000 
  1   
 4  0  0  0 20  0 30  0 Taunting                  0  1  0    
data/animations/LID_57_04~Taunt~2.cas                                             0      0       +0.0000   +0.0000   +0.0000         0 +0.0000    0   0  +0.0000      1820   32586 +0.0000  +0.0000  +1.0000 
  1   
 4  0  0  0 15  0 40  0 Taunting                  0  1  0    
data/animations/LID_57_07~Taunt~3.cas                                             0      0       +0.0000   +0.0000   +0.0000         0 +0.0000    0   0  +0.0000      1820   32586 +0.0000  +0.0000  +1.0000 
  1   
 4  0  0  0 15  0 30  0 Taunting                  0  1  0    0 0 0 0 
data/animations/Screeching~Woman~Idle.cas                                         0      0       +0.0000   +0.0000   +0.0000         0 +0.0000    0   0  +0.0000      1820   32586 +0.0000  +0.0000  +1.0000 
  1   
 1  0  0  0  0  0 20  0 ANIM_SCREECHERS           0  1  1    
data/animations/Screeching~Woman~Idle2.cas                                        0      0       +0.0000   +0.0000   +0.0000         0 +0.0000    0   0  +0.0000      1820   32586 +0.0000  +0.0000  +1.0000 
  1   
 1  0  0  0  0  0 20  0 ANIM_SCREECHERS           0  1  1    
data/animations/LIS~74_06~celeb2.cas                                              0      0       +0.0000   +0.0000   +0.0000         0 +0.0000    0   0  +0.0000      1820   32586 +0.0000  +0.0000  +1.0000 
  1   
 4  0  0  0 25  0 40  0 Celebration               0  1  0    0 0 0 
data/animations/LID_swim_STAND2SWIM.CAS                                           0      0       +0.0000   +0.0000   +0.0000         0 +0.0000    0   0  +0.0000      1820   32586 +0.0000  +0.0000  +1.0000 
  0      
data/animations/LID_swim_SWIM2STAND.CAS                                           0      0       +0.0000   +0.0000   +0.0000         0 +0.0000    0   0  +0.0000      1820   32586 +0.0000  +0.0000  +1.0000 
  0      
data/animations/LIS_swim_treadwater.CAS                                           0      0       +0.0000   +0.0000   +0.0000         0 +0.0000    0   0  +0.0000      1820   32586 +0.0000  +0.0000  +1.0000 
  0      
data/animations/LIS_swim.cas                                                      0      0       +0.0000   +0.0000   +0.0000         0 +0.0000    0   0  +0.0000      1820   32586 +0.0000  +0.0000  +1.0000 
  0      
data/animations/LIS_swim_shuffle_forward.CAS                                      0      0       +0.0000   +0.0000   +0.0000         0 +0.0000    0   0  +0.0000      1820   32586 +0.0000  +0.0000  +1.0000 
  0      
data/animations/LIS_swim_shuffle_backward.CAS                                     0      0       +0.0000   +0.0000   +0.0000         0 +0.0000    0   0  +0.0000      1820   32586 +0.0000  +0.0000  +1.0000 
  0      
data/animations/LIS_swim_shuffle_left.CAS                                         0      0       +0.0000   +0.0000   +0.0000         0 +0.0000    0   0  +0.0000      1820   32586 +0.0000  +0.0000  +1.0000 
  0      
data/animations/LIS_swim_shuffle_right.CAS                                        0      0       +0.0000   +0.0000   +0.0000         0 +0.0000    0   0  +0.0000      1820   32586 +0.0000  +0.0000  +1.0000 
  0      
data/animations/LIS_swim_attack.CAS                                               0      0       +0.0432   +0.0000   +1.5994       282 +1.6000   15   0  +0.0896      1820   32586 +0.0000  +0.0000  +1.0000 
  0      0 0 
  +0.7260000   +4.9999900   +6.8308988 0 1 
