effect musket_quicks1
{ 
	type explosion 
	{ 
		; dust explode 
		model			models_effects/explosion_dust.cas 
		anim_time		0.18
		max_scale		2.2
		max_particle_scale	2.7
		scale_time_bias		0.7
		alpha_time_bias		0.4

		; debris 
		debris_model		models_effects/fire_debri_01.CAS
        debris_num_particles     0
        debris_lifetime_range    2.9, 5.9
        debris_emit_angle        180              ; degrees
        debris_time_bias         0.9
        debris_velocity_range    6.5, 8.5
        debris_scale_range       1.5, 3
	} 
} 

    effect musket_quicks2 
    { 
        type explosion 
        { 
            ; dust explode 
            model            models_effects/explosion.cas 
            anim_time        0.12
            max_scale        1.7
            max_particle_scale    2.2
            scale_time_bias        0.5
            alpha_time_bias        0.3 

            ; debris 
            debris_model        models_effects/debri02.cas 
            debris_num_particles    0 
            debris_lifetime_range    0, 00 
            debris_emit_angle    100 ; degrees 
            debris_time_bias    0.0 
            debris_velocity_range    0.0, 0.0 
            debris_scale_range    0.0, 0.0 
        } 
    } 

    ; *** This effect will give some medium speed smoke.
    effect musket_1
    {
        type particle
         {
            texture            battlefield/fire/smoke0.tga

            size_range          5.0, 12.0
            age_range           4.0, 12.0
                grow_range        2.0, 3.8
            velocity           0.0, 0.0
            colour             181, 181, 181
            alpha_max           70            ; maximum alpha value
            emitter distance
            {
                ; How many particels per meter. The inverse must not be higher then the maximum range
                density        0.008
            }
            
            fade_time        18.0        
        }
    }

    ; *** This effect will surround the gunners with lingering smoke.
    effect musket_2
    {
        type particle
         {
            texture            battlefield/fire/smoke0.tga

            size_range          8.0, 18.0
            age_range           13.0, 16.5
                grow_range        2.5, 5.0
            velocity           0.0, 0.0
            colour             181, 181, 181
            alpha_max           40            ; maximum alpha value
            emitter distance
            {
                ; How many particels per meter. The inverse must not be higher then the maximum range
                density        0.008
            }
            
            fade_time        62.0        
        }
    }


    effect musket_fire
    {
           type explosion
           {
           ; dust explode
                   model                           models_effects/explosion.cas
                   anim_time                       0.047
                   max_scale                       1.5
                   max_particle_scale              2
                   scale_time_bias                 0.5
                   alpha_time_bias                 0.3

                   ; debris
           debris_model                                     models_effects/fire_debri_01.CAS
           debris_num_particles     0
           debris_lifetime_range    0, 0
           debris_emit_angle        50               ; degrees
           debris_time_bias         0
           debris_velocity_range    0, 0
           debris_scale_range       0, 0
           }
    }


    effect_set musket 
    { 
        lod 1000 
        { 
            musket_1
            musket_2
            musket_quicks1
            musket_quicks2
            musket_fire
        } 
    }