  +1.0000000
19
  0   0   0  63   0   0   0   0   +0.0000000   +0.0000000   +0.0000000    -1
 97   0 101 114   0   0   0   0   +0.0952390   +0.0007523   +0.0000001     0
  0   0   0   0   0   0   0   0   +0.0234128   -0.4646037   -0.0049952     1
 97   0 101 114   0   0   0   0   +0.0231561   -0.4006252   -0.0124050     2
 32   0  32  32   0   0   0   0   -0.0000000   +0.2124624   +0.0000000     0
 68   1   0   0   0   0   0   0   -0.0002945   +0.2115581   +0.0000000     4
222   1 207  60   0   0   0   0   -0.0000617   +0.2349734   +0.0000000     5
237   0 116  61   0   0   0   0   +0.0040140   -0.0843267   -0.2039877     5
 43   0 136  61   0   0   0   0   +0.0000000   -0.2602941   -0.0697457     7
222   0 154  61   0   0   0   0   +0.0000000   -0.2600267   -0.0696740     8
 51   0 213  61   0   0   0   0   +0.1786139   +0.0782278   -0.0239007     5
201   0  14  62   0   0   0   0   +0.3022081   +0.0110892   -0.0137860    10
 65   0   7  62   5   0   0   0   +0.2838365   -0.0030067   +0.0263546    11
  7   0 232  61   0   0   0   0   -0.1780247   +0.0782278   -0.0239007     5
208   0 216  61   0   0   0   0   -0.3022081   +0.0110892   -0.0137860    13
178   0 231  61   4   0   0   0   -0.2838366   -0.0030065   +0.0263547    14
170   0 176  61   0   0   0   0   -0.0952390   +0.0007524   +0.0000000     0
186   0  42  61   0   0   0   0   -0.0234127   -0.4646037   -0.0049953    16
169   0  29 187   0   0   0   0   -0.0231561   -0.4006253   -0.0124050    17
  0   0   0   0 
221
data/animations/LIS~01~Stand~Idle.cas                                             0      0       +0.0000   +0.0000   +0.0000         0 +0.0000    0   0  +0.0000      1820   32586 +0.0000  +0.0000  +1.0000 
  0   0    
data/animations/LIS/LIS~01~Stand~Idle~02.cas                                      0      0       +0.0000   +0.0000   +0.0000         0 +0.0000    0   0  +0.0000      1820   32586 +0.0000  +0.0000  +1.0000 
  1   
 1  0  0  0 10  0 12  0 ANIM_IDLE_CLOTH           0  1  0    
data/animations/LIS/LIS~01~Stand~Idle~03.cas                                      0      0       +0.0000   +0.0000   +0.0000         0 +0.0000    0   0  +0.0000      1820   32586 +0.0000  +0.0000  +1.0000 
  2   
 5  0  0  0  5  0  9  0 neck_crack                0  1  0 
 5  0  0  0  7  0 10  0 stretch_back              0  1  0    
data/animations/LIS/LIS~01~Stand~Idle~04.cas                                      0      0       +0.0000   +0.0000   +0.0000         0 +0.0000    0   0  +0.0000      1820   32586 +0.0000  +0.0000  +1.0000 
  1   
 5  0  0  0  6  0  9  0 stretch_back              0  1  0    
data/animations/LIS/LIS~01~Stand~Idle~05.cas                                      0      0       +0.0000   +0.0000   +0.0000         0 +0.0000    0   0  +0.0000      1820   32586 +0.0000  +0.0000  +1.0000 
  2   
 1  0  0  0  5  0  7  0 ANIM_IDLE_CLOTH           0  1  0 
 5  0  0  0  6  0  8  0 stretch_back              0  1  0    
data/animations/LIS/LIS~01~Stand~Idle~06.cas                                      0      0       +0.0000   +0.0000   +0.0000         0 +0.0000    0   0  +0.0000      1820   32586 +0.0000  +0.0000  +1.0000 
  1   
 1  0  0  0  5  0  7  0 ANIM_IDLE_CLOTH           0  1  0    
data/animations/LIS/LIS~01~Stand~Idle~07.cas                                      0      0       +0.0000   +0.0000   +0.0000         0 +0.0000    0   0  +0.0000      1820   32586 +0.0000  +0.0000  +1.0000 
  1   
 1  0  0  0  3  0 10  0 ANIM_IDLE_CLOTH           0  1  0    
data/animations/LIS/LIS~01~Stand~Idle~08.cas                                      0      0       +0.0000   +0.0000   +0.0000         0 +0.0000    0   0  +0.0000      1820   32586 +0.0000  +0.0000  +1.0000 
  2   
 1  0  0  0  3  0 20  0 ANIM_IDLE_CLOTH           0  1  0 
 5  0  0  0 15  0 20  0 scratch_head              0  1  0    
data/animations/LIS/LIS~01~Stand~Idle~09.cas                                      0      0       +0.0000   +0.0000   +0.0000         0 +0.0000    0   0  +0.0000      1820   32586 +0.0000  +0.0000  +1.0000 
  1   
 1  0  0  0  7  0  7  0 ANIM_IDLE_CLOTH           0  0  0    0 
data/animations/LIS~08~Stand~idle~turn~90~right.cas                               0  16202       +0.0000   +0.0000   +0.0000         0 +0.0000    0   0  +0.0000      1820   32586 +0.0000  +0.0000  +1.0000 
  2   
 2  0  0  0 10  0 14  0 unit_march                0  1  0 
 2  0  0  0 18  0 21  0 unit_march                0  1  0    0 
data/animations/LIS~09~Stand~idle~turn~90~LEFT.cas                                0  49152       +0.0000   +0.0000   +0.0000         0 +0.0000    0   0  +0.0000      1820   32586 +0.0000  +0.0000  +1.0000 
  2   
 2  0  0  0  8  0 12  0 unit_march                0  1  0 
 2  0  0  0 18  0 20  0 unit_march                0  1  0    0 
data/animations/LIS~49~Stand~2~March.cas                                          0      0       +0.0000   +0.0000   +0.0000         0 +0.0000    0   0  +0.0000      1820   32586 +0.0000  +0.0000  +1.0000 
  1   
 2  0  0  0 16  0 20  0 unit_march                0  1  0    
data/animations/LIS~03~March.cas                                                  0      0       +0.0000   +0.0000   +0.0000         0 +0.0000    0   0  +0.0000      1820   32586 +0.0000  +0.0000  +1.0000 
  2   
 2  0  0  0  4  0  8  0 unit_march                0  1  0 
 2  0  0  0 14  0 18  0 unit_march                0  1  0    
data/animations/LIS~51~March~2~Stand.cas                                          0      0       +0.0000   +0.0000   +0.0000         0 +0.0000    0   0  +0.0000      1820   32586 +0.0000  +0.0000  +1.0000 
  2   
 2  0  0  0  6  0 10  0 unit_march                0  1  0 
 2  0  0  0 12  0 16  0 unit_march                0  1  0    0 0 0 
data/animations/LIS~50_01Stand~to~Run.cas                                         0      0       +0.0000   +0.0000   +0.0000         0 +0.0000    0   0  +0.0000      1820   32586 +0.0000  +0.0000  +1.0000 
  3   
 2  0  0  0 20  0 24  0 unit_march                0  1  0 
 2  0  0  0 26  0 30  0 unit_march                0  1  0 
 2  0  0  0 32  0 34  0 unit_run                  0  1  0    
data/animations/fs_slow_swordsman_run.CAS                                         0      0       +0.0000   +0.0000   +0.0000         0 +0.0000    0   0  +0.0000      1820   32586 +0.0000  +0.0000  +1.0000 
  2   
 2  0  0  0  4  0  6  0 unit_run                  0  1  0 
 2  0  0  0 10  0 12  0 unit_run                  0  1  0    
data/animations/LIS~54~Run~to~stand.cas                                           0      0       +0.0000   +0.0000   +0.0000         0 +0.0000    0   0  +0.0000      1820   32586 +0.0000  +0.0000  +1.0000 
  4   
 2  0  0  0  4  0  6  0 unit_run                  0  1  0 
 2  0  0  0  8  0 10  0 unit_run                  0  1  0 
 2  0  0  0 14  0 16  0 unit_march                0  1  0 
 2  0  0  0 17  0 18  0 unit_march                0  1  0    
data/animations/LIS~55~run~2~March.cas                                            0      0       +0.0000   +0.0000   +0.0000         0 +0.0000    0   0  +0.0000      1820   32586 +0.0000  +0.0000  +1.0000 
  2   
 2  0  0  0  4  0  6  0 unit_run                  0  1  0 
 2  0  0  0 10  0 12  0 unit_march                0  1  0    
data/animations/LIS~53~March~to~~Run.cas                                          0      0       +0.0000   +0.0000   +0.0000         0 +0.0000    0   0  +0.0000      1820   32586 +0.0000  +0.0000  +1.0000 
  4   
 2  0  0  0  6  0 10  0 unit_march                0  1  0 
 2  0  0  0 16  0 20  0 unit_run                  0  1  0 
 2  0  0  0 24  0 26  0 unit_run                  0  1  0 
 2  0  0  0 30  0 32  0 unit_run                  0  1  0    
data/animations/LIS~63~Stand~Ready~2~Stand.cas                                    0      0       +0.0000   +0.0000   +0.0000         0 +0.0000    0   0  +0.0000      1820   32586 +0.0000  +0.0000  +1.0000 
  1   
 2  0  0  0  9  0  9  0 unit_march                0  0  0    
data/animations/LIS~02~Stand~Ready.cas                                            0      0       +0.0000   +0.0000   +0.0000         0 +0.0000    0   0  +0.0000      1820   32586 +0.0000  +0.0000  +1.0000 
  0      
data/animations/LIS/LIS_stand_ready_idle_01.CAS                                   0      0       +0.0000   +0.0000   +0.0000         0 +0.0000    0   0  +0.0000      1820   32586 +0.0000  +0.0000  +1.0000 
  0      
data/animations/LIS/LIS_stand_ready_idle_01.CAS                                   0      0       +0.0000   +0.0000   +0.0000         0 +0.0000    0   0  +0.0000      1820   32586 +0.0000  +0.0000  +1.0000 
  0      
data/animations/LIS/LIS_stand_ready_idle_01.CAS                                   0      0       +0.0000   +0.0000   +0.0000         0 +0.0000    0   0  +0.0000      1820   32586 +0.0000  +0.0000  +1.0000 
  0      
data/animations/LIS/LIS_stand_ready_idle_01.CAS                                   0      0       +0.0000   +0.0000   +0.0000         0 +0.0000    0   0  +0.0000      1820   32586 +0.0000  +0.0000  +1.0000 
  0      
data/animations/LIS/LIS_stand_ready_idle_01.CAS                                   0      0       +0.0000   +0.0000   +0.0000         0 +0.0000    0   0  +0.0000      1820   32586 +0.0000  +0.0000  +1.0000 
  0      
data/animations/LIS/LIS_stand_ready_idle_01.CAS                                   0      0       +0.0000   +0.0000   +0.0000         0 +0.0000    0   0  +0.0000      1820   32586 +0.0000  +0.0000  +1.0000 
  0      
data/animations/LIS/LIS_stand_ready_idle_01.CAS                                   0      0       +0.0000   +0.0000   +0.0000         0 +0.0000    0   0  +0.0000      1820   32586 +0.0000  +0.0000  +1.0000 
  0      
data/animations/LIS/LIS_stand_ready_idle_01.CAS                                   0      0       +0.0000   +0.0000   +0.0000         0 +0.0000    0   0  +0.0000      1820   32586 +0.0000  +0.0000  +1.0000 
  0      
data/animations/LIS/LIS_stand_ready_idle_01.CAS                                   0      0       +0.0000   +0.0000   +0.0000         0 +0.0000    0   0  +0.0000      1820   32586 +0.0000  +0.0000  +1.0000 
  0      
data/animations/LIS/LIS_stand_ready_idle_01.CAS                                   0      0       +0.0000   +0.0000   +0.0000         0 +0.0000    0   0  +0.0000      1820   32586 +0.0000  +0.0000  +1.0000 
  0      
data/animations/LIS/LIS_stand_ready_idle_01.CAS                                   0      0       +0.0000   +0.0000   +0.0000         0 +0.0000    0   0  +0.0000      1820   32586 +0.0000  +0.0000  +1.0000 
  0      
data/animations/LIS/LIS_stand_ready_idle_01.CAS                                   0      0       +0.0000   +0.0000   +0.0000         0 +0.0000    0   0  +0.0000      1820   32586 +0.0000  +0.0000  +1.0000 
  0      
data/animations/LIS~10~stand~ready~turn~90~right.cas                              0  16384       +0.0000   +0.0000   +0.0000         0 +0.0000    0   0  +0.0000      1820   32586 +0.0000  +0.0000  +1.0000 
  2   
 2  0  0  0  6  0  7  0 unit_march                0  1  0 
 2  0  0  0  8  0  9  0 unit_march                0  1  0    
data/animations/LIS~11~stand~ready~turn~90~left.cas                               0  49152       +0.0000   +0.0000   +0.0000         0 +0.0000    0   0  +0.0000      1820   32586 +0.0000  +0.0000  +1.0000 
  2   
 2  0  0  0  6  0  7  0 unit_march                0  1  0 
 2  0  0  0  8  0  9  0 unit_march                0  1  0    
data/animations/LIS~63~Stand~2~Stand~Ready.cas                                    0      0       +0.0000   +0.0000   +0.0000         0 +0.0000    0   0  +0.0000      1820   32586 +0.0000  +0.0000  +1.0000 
  1   
 2  0  0  0  8  0 12  0 unit_march                0  1  0    
data/animations/LIS~65~stand~2~adance.cas                                         0      0       +0.0000   +0.0000   +0.0000         0 +0.0000    0   0  +0.0000      1820   32586 +0.0000  +0.0000  +1.0000 
  2   
 2  0  0  0 14  0 18  0 unit_march                0  1  0 
 2  0  0  0 28  0 32  0 unit_march                0  1  0    
data/animations/LIS~07~Advance.cas                                                0      0       +0.0000   +0.0000   +0.0000         0 +0.0000    0   0  +0.0000      1820   32586 +0.0000  +0.0000  +1.0000 
  2   
 2  0  0  0 16  0 18  0 unit_march                0  1  0 
 2  0  0  0 30  0 32  0 unit_march                0  1  0    
data/animations/LIS~60~Adance~2~Stand.cas                                         0      0       +0.0000   +0.0000   +0.0000         0 +0.0000    0   0  +0.0000      1820   32586 +0.0000  +0.0000  +1.0000 
  2   
 2  0  0  0 32  0 34  0 unit_march                0  1  0 
 2  0  0  0 46  0 48  0 unit_march                0  1  0    
data/animations/LIS~64~stand~2~retreat.cas                                        0      0       +0.0000   +0.0000   +0.0000         0 +0.0000    0   0  +0.0000      1820   32586 +0.0000  +0.0000  +1.0000 
  2   
 2  0  0  0 22  0 24  0 unit_march                0  1  0 
 2  0  0  0 36  0 38  0 unit_march                0  1  0    
data/animations/LIS~06~Retreat.cas                                                0      0       +0.0000   +0.0000   +0.0000         0 +0.0000    0   0  +0.0000      1820   32586 +0.0000  +0.0000  +1.0000 
  2   
 2  0  0  0 12  0 14  0 unit_march                0  1  0 
 2  0  0  0 24  0 26  0 unit_march                0  1  0    
data/animations/LIS~59~Retreat~2~stand.cas                                        0      0       +0.0000   +0.0000   +0.0000         0 +0.0000    0   0  +0.0000      1820   32586 +0.0000  +0.0000  +1.0000 
  2   
 2  0  0  0 16  0 20  0 unit_march                0  1  0 
 2  0  0  0 30  0 34  0 unit_march                0  1  0    
data/animations/LIS~44_03~Shuffle~forward.cas                                     0      0       +0.0000   +0.0000   +0.0000         0 +0.0000    0   0  +0.0000      1820   32586 +0.0000  +0.0000  +1.0000 
  2   
 2  0  0  0  9  0 11  0 unit_march                0  1  0 
 2  0  0  0 13  0 15  0 unit_march                0  1  0    
data/animations/LIS~45_01~Shuffle~back.cas                                        0      0       +0.0000   +0.0000   +0.0000         0 +0.0000    0   0  +0.0000      1820   32586 +0.0000  +0.0000  +1.0000 
  2   
 2  0  0  0  5  0  7  0 unit_march                0  1  0 
 2  0  0  0 10  0 12  0 unit_march                0  1  0    
data/animations/LIS~46_01~Shuffle~Left.cas                                        0      0       +0.0000   +0.0000   +0.0000         0 +0.0000    0   0  +0.0000      1820   32586 +0.0000  +0.0000  +1.0000 
  2   
 2  0  0  0  8  0 10  0 unit_march                0  1  0 
 2  0  0  0 14  0 16  0 unit_march                0  1  0    
data/animations/LIS~47_01~Shuffle~Right.cas                                       0      0       +0.0000   +0.0000   +0.0000         0 +0.0000    0   0  +0.0000      1820   32586 +0.0000  +0.0000  +1.0000 
  3   
 2  0  0  0  8  0 10  0 unit_march                0  1  0 
 2  0  0  0 16  0 18  0 unit_march                0  1  0 
 2  0  0  0 23  0 25  0 unit_march                0  1  0    0 0 0 0 0 
data/animations/LIS~18_03~Stabbing~downwards~45.cas                               0      0       +0.1800   -0.4380   +1.5898      1176 +1.6000   11   0  +0.3002      1820   32586 +0.0000  +0.0000  +1.0000 
  2   
 1  0  0  0  7  0  7  0 ANIM_SWOOSH               0  0  0 
 1  0  0  0  9  0 11  0 ANIM_SCRAPE               0  1  0    
data/animations/LIS~19~slashing~move~downwars~45.cas                              0      0       +0.2865   -0.6680   +1.5741      1878 +1.6000   14   0  +0.2502      1820   32586 +0.0000  +0.0000  +1.0000 
  2   
 1  0  0  0 11  0 11  0 ANIM_SWOOSH               0  0  0 
 1  0  0  0 12  0 14  0 ANIM_SCRAPE               0  1  0    
data/animations/LIS~12~Stab~level.cas                                             0      0       +0.7544   +0.1660   +1.4110      5121 +1.6000   11   0  +0.1425      1820   32586 +0.0000  +0.0000  +1.0000 
  2   
 1  0  0  0  7  0  7  0 ANIM_SWOOSH               0  0  0 
 1  0  0  0  9  0 11  0 ANIM_SCRAPE               0  1  0    
data/animations/LIS~13~Slashing~Move~horizontal~height.cas                        0      0       -0.1341   +0.0870   +1.5944      -875 +1.6000   11   0  +0.1665      1820   32586 +0.0000  +0.0000  +1.0000 
  2   
 1  0  0  0  7  0  7  0 ANIM_SWOOSH               0  0  0 
 1  0  0  0  9  0 11  0 ANIM_SCRAPE               0  1  0    
data/animations/LIS~15~stabbing~Move~upward~45.cas                                0      0       +0.2820   +0.8460   +1.5750      1848 +1.6000   13   0  +0.2551      1820   32586 +0.0000  +0.0000  +1.0000 
  2   
 1  0  0  0 10  0 10  0 ANIM_SWOOSH               0  0  0 
 1  0  0  0 11  0 13  0 ANIM_SCRAPE               0  1  0    
data/animations/LIS~16~slashing~move~upwards~45.cas                               0      0       +0.1292   +0.9700   +1.5948       843 +1.6000   10   0  +0.3599      1820   32586 +0.0000  +0.0000  +1.0000 
  3   
 4  0  0  0  6  0  8  0 INDIVIDUAL_ATTACK_GRUNT   0  1  0 
 1  0  0  0  6  0  6  0 ANIM_SWOOSH               0  0  0 
 1  0  0  0  8  0 10  0 ANIM_SCRAPE               0  1  0    
data/animations/LIS~17_04~Swing~Weapon~overhead~upward~45.cas                     0      0       +0.2457   +0.8740   +1.5810      1608 +1.6000    9   0  +0.1918      1820   32586 +0.0000  +0.0000  +1.0000 
  3   
 4  0  0  0  6  0  8  0 INDIVIDUAL_ATTACK_GRUNT   0  1  0 
 1  0  0  0  8  0  8  0 ANIM_SWOOSH               0  0  0 
 1  0  0  0 10  0 12  0 ANIM_SCRAPE               0  1  0    0 0 0 0 0 0 0 0 0 
data/animations/LIS~20~swing~downwards~45.cas                                     0      0       +0.1840   -0.1080   +1.5894      1202 +1.6000   14   0  +0.2075      1820   32586 +0.0000  +0.0000  +1.0000 
  2   
 1  0  0  0 11  0 11  0 ANIM_SWOOSH               0  0  0 
 1  0  0  0 13  0 15  0 ANIM_SCRAPE               0  1  0    0 0 0 0 0 
data/animations/LIS~14~~Swing~weapon~over~head~horizontal.cas                     0      0       +0.0956   +0.7120   +1.5971       623 +1.6000   11   0  +0.2083      1820   32586 +0.0000  +0.0000  +1.0000 
  3   
 4  0  0  0  6  0  8  0 INDIVIDUAL_ATTACK_GRUNT   0  1  0 
 1  0  0  0  7  0  7  0 ANIM_SWOOSH               0  0  0 
 1  0  0  0  9  0 11  0 ANIM_SCRAPE               0  1  0    0 
data/animations/LIS~Run~attack.cas                                                0      0       -0.4413   -0.2410   +1.5379     -2915 +1.6000   10   0  +2.7781      1820   32586 +0.0000  +0.0000  +1.0000 
  6   
 4  0  0  0  1  0  5  0 INDIVIDUAL_ATTACK_SCREAM  0  1  0 
 2  0  0  0  4  0  6  0 unit_run                  0  1  0 
 1  0  0  0  8  0  8  0 ANIM_SWOOSH               0  0  0 
 1  0  0  0  9  0 11  0 ANIM_SCRAPE               0  1  0 
 2  0  0  0 10  0 12  0 unit_run                  0  1  0 
 2  0  0  0 16  0 18  0 unit_run                  0  1  0    0 0 0 
data/animations/DIE~02_03~stabbed~dying~forwards.cas                              0      0       +0.0000   +0.0000   +0.0000         0 +0.0000    0   0  +0.0000      1820   32586 +0.0000  +0.0000  +1.0000 
  2   
 4  0  0  0  2  0  2  0 INDIVIDUAL_DEATH          0  0  0 
 2  0  0  0 46  0 46  0 fall                      0  0  0    
data/animations/DIE~Forwards.cas                                                  0  18210       +0.0000   +0.0000   +0.0000         0 +0.0000    0   0  +0.0000      1820   32586 +0.0000  +0.0000  +1.0000 
  2   
 4  0  0  0  2  0  2  0 INDIVIDUAL_DEATH          0  0  0 
 2  0  0  0 15  0 15  0 fall                      0  0  0    
data/animations/DIE~02_01~dying~backwards.cas                                     0  32990       +0.0000   +0.0000   +0.0000         0 +0.0000    0   0  +0.0000      1820   32586 +0.0000  +0.0000  +1.0000 
  2   
 4  0  0  0  2  0  2  0 Death_Cry                 0  0  0 
 2  0  0  0 11  0 11  0 fall                      0  0  0    
data/animations/DIE~01~dying~Backwards2.cas                                       0  23260       +0.0000   +0.0000   +0.0000         0 +0.0000    0   0  +0.0000      1820   32586 +0.0000  +0.0000  +1.0000 
  2   
 4  0  0  0  2  0  2  0 INDIVIDUAL_DEATH          0  0  0 
 2  0  0  0  6  0  6  0 fall                      0  0  0    
data/animations/DIE~01~dying~to~his~right.cas                                     0  12923       +0.0000   +0.0000   +0.0000         0 +0.0000    0   0  +0.0000      1820   32586 +0.0000  +0.0000  +1.0000 
  2   
 4  0  0  0  2  0  2  0 INDIVIDUAL_DEATH          0  0  0 
 2  0  0  0 12  0 12  0 fall                      0  0  0    
data/animations/DIE~Back~right.cas                                                0  32944       +0.0000   +0.0000   +0.0000         0 +0.0000    0   0  +0.0000      1820   32586 +0.0000  +0.0000  +1.0000 
  2   
 4  0  0  0  2  0  2  0 INDIVIDUAL_DEATH          0  0  0 
 2  0  0  0  8  0  8  0 fall                      0  0  0    0 0 
data/animations/Flailing~Cycle.cas                                                0      0       +0.0000   +0.0000   +0.0000         0 +0.0000    0   0  +0.0000      1820   32586 +0.0000  +0.0000  +1.0000 
  1   
 4  0  0  0  0  0  2  0 Fall_Scream               0  1  1    
data/animations/Flailing~Cycle~to~land.cas                                        0  22126       +0.0000   +0.0000   +0.0000         0 +0.0000    0   0  +0.0000      1820   32586 +0.0000  +0.0000  +1.0000 
  2   
 1  0  0  0  2  0  2  0 ANIM_FALL_SQUASH          0  0  0 
 4  0  0  0  4  0  4  0 INDIVIDUAL_FALL_GRUNT     0  0  0    0 
data/animations/man_trampled_down_roll_from_front.CAS                             0  19220       +0.0000   +0.0000   +0.0000         0 +0.0000    0   0  +0.0000      1820   32586 +0.0000  +0.0000  +1.0000 
  3   
 4  0  0  0  2  0  2  0 Death_Cry                 0  0  0 
 2  0  0  0 10  0 10  0 fall                      0  0  0 
 2  0  0  0 20  0 20  0 fall                      0  0  0    0 0 0 0 
data/animations/LIS~Charging~death.cas                                            0      0       +0.0000   +0.0000   +0.0000         0 +0.0000    0   0  +0.0000      1820   32586 +0.0000  +0.0000  +1.0000 
  4   
 2  0  0  0  4  0  4  0 unit_run                  0  0  0 
 2  0  0  0  9  0  9  0 unit_run                  0  0  0 
 4  0  0  0 10  0 12  0 Death_Cry                 0  1  0 
 2  0  0  0 16  0 16  0 fall                      0  0  0    0 
data/animations/LIS~05~charge~loop.cas                                            0      0       +0.0000   +0.0000   +0.0000         0 +0.0000    0   0  +0.0000      1820   32586 +0.0000  +0.0000  +1.0000 
  2   
 2  0  0  0  3  0  5  0 unit_run                  0  1  0 
 2  0  0  0  9  0 11  0 unit_run                  0  1  0    
data/animations/LIS~66~Stand~2~charge.cas                                         0      0       +0.0000   +0.0000   +0.0000         0 +0.0000    0   0  +0.0000      1820   32586 +0.0000  +0.0000  +1.0000 
  4   
 4  0  0  0  0  0 10  0 Inviduals_Charge          0  1  0 
 2  0  0  0 12  0 16  0 unit_march                0  1  0 
 2  0  0  0 18  0 20  0 unit_run                  0  1  0 
 2  0  0  0 24  0 26  0 unit_run                  0  1  0    0 
data/animations/LIS~56~Run~2~Charge.cas                                           0      0       +0.0000   +0.0000   +0.0000         0 +0.0000    0   0  +0.0000      1820   32586 +0.0000  +0.0000  +1.0000 
  3   
 4  0  0  0  0  0 10  0 Inviduals_Charge          0  1  0 
 2  0  0  0  4  0  6  0 unit_run                  0  1  0 
 2  0  0  0  8  0 10  0 unit_run                  0  1  0    
data/animations/LIS~57~charge~2~stand.cas                                         0   4676       +0.0000   +0.0000   +0.0000         0 +0.0000    0   0  +0.0000      1820   32586 +0.0000  +0.0000  +1.0000 
  5   
 2  0  0  0  4  0  6  0 unit_run                  0  1  0 
 2  0  0  0 10  0 12  0 unit_run                  0  1  0 
 2  0  0  0 14  0 18  0 unit_march                0  1  0 
 2  0  0  0 16  0 20  0 unit_march                0  1  0 
 2  0  0  0 22  0 26  0 unit_march                0  1  0    
data/animations/LIS~21~charge~attack.cas                                          0      0       +0.2798   +0.2030   +1.5753      1834 +1.6000   15   0  +3.3093      1820   32586 +0.0000  +0.0000  +1.0000 
  8   
 2  0  0  0  4  0  6  0 unit_run                  0  1  0 
 2  0  0  0  8  0 10  0 unit_run                  0  1  0 
 1  0  0  0 14  0 14  0 ANIM_SWOOSH               0  0  0 
 1  0  0  0 15  0 17  0 ANIM_SCRAPE               0  1  0 
 2  0  0  0 16  0 18  0 unit_march                0  1  0 
 2  0  0  0 21  0 23  0 unit_march                0  1  0 
 2  0  0  0 26  0 28  0 unit_run                  0  1  0 
 2  0  0  0 30  0 32  0 unit_run                  0  1  0    
data/animations/LIS~21~Charge~Jump~Attack.cas                                     0      0       +0.0000   +0.0000   +0.0000         0 +0.0000   21   0  +3.8018      1820   32586 +0.0000  +0.0000  +1.0000 
  7   
 2  0  0  0  1  0  1  0 unit_run                  0  0  0 
 2  0  0  0  4  0  4  0 unit_run                  0  0  0 
 4  0  0  0 14  0 16  0 Attack_Scream             0  1  0 
 1  0  0  0 18  0 18  0 ANIM_SWOOSH               0  0  0 
 2  0  0  0 20  0 20  0 unit_run                  0  0  0 
 2  0  0  0 21  0 21  0 unit_run                  0  0  0 
 1  0  0  0 21  0 21  0 ANIM_SCRAPE               0  0  0    
data/animations/LIS~65~testudo~stand~ready~to~advance.cas                         0      0       +0.0000   +0.0000   +0.0000         0 +0.0000    0   0  +0.0000      1820   32586 +0.0000  +0.0000  +1.0000 
  1   
 2  0  0  0 20  0 21  0 unit_march                0  1  0    
data/animations/LIS~07~testudo~advance.cas                                        0      0       +0.0000   +0.0000   +0.0000         0 +0.0000    0   0  +0.0000      1820   32586 +0.0000  +0.0000  +1.0000 
  2   
 2  0  0  0  0  0  4  0 unit_march                0  1  0 
 2  0  0  0 14  0 18  0 unit_march                0  1  0    
data/animations/LIS~60~testudo~advance~to~stand~ready.cas                         0   3663       +0.0000   +0.0000   +0.0000         0 +0.0000    0   0  +0.0000      1820   32586 +0.0000  +0.0000  +1.0000 
  2   
 2  0  0  0  0  0  4  0 unit_march                0  1  0 
 2  0  0  0 10  0 14  0 unit_march                0  1  0    
data/animations/LIS_27~testudo~stand~ready~to~front~row~stand~ready.cas           0      0       +0.0000   +0.0000   +0.0000         0 +0.0000    0   0  +0.0000      1820   32586 +0.0000  +0.0000  +1.0000 
  1   
 2  0  0  0  3  0  5  0 unit_march                0  1  0    
data/animations/TESTUDO_01~front~row~stand~ready.cas                              0      0       +0.0000   +0.0000   +0.0000         0 +0.0000    0   0  +0.0000      1820   32586 +0.0000  +0.0000  +1.0000 
  0      
data/animations/TESTUDO_27~front~row~advance~to~stand.cas                         0      0       +0.0000   +0.0000   +0.0000         0 +0.0000    0   0  +0.0000      1820   32586 +0.0000  +0.0000  +1.0000 
  1   
 2  0  0  0 14  0 16  0 unit_march                0  1  0    
data/animations/TESTUDO_42~front~row~shuffle~backwards.cas                        0      0       +0.0000   +0.0000   +0.0000         0 +0.0000    0   0  +0.0000      1820   32586 +0.0000  +0.0000  +1.0000 
  2   
 2  0  0  0 10  0 12  0 unit_march                0  1  0 
 2  0  0  0 16  0 18  0 unit_march                0  1  0    
data/animations/TESTUDO_37~front~row~shuffle~forwards.cas                         0      0       +0.0000   +0.0000   +0.0000         0 +0.0000    0   0  +0.0000      1820   32586 +0.0000  +0.0000  +1.0000 
  2   
 2  0  0  0  6  0  8  0 unit_march                0  1  0 
 2  0  0  0 11  0 13  0 unit_march                0  1  0    
data/animations/TESTUDO_47~front~row~shuffle~left.cas                             0      0       +0.0000   +0.0000   +0.0000         0 +0.0000    0   0  +0.0000      1820   32586 +0.0000  +0.0000  +1.0000 
  2   
 2  0  0  0  6  0  8  0 unit_march                0  1  0 
 2  0  0  0 12  0 14  0 unit_march                0  1  0    
data/animations/TESTUDO_52~front~row~shuffle~right.cas                            0      0       +0.0000   +0.0000   +0.0000         0 +0.0000    0   0  +0.0000      1820   32586 +0.0000  +0.0000  +1.0000 
  2   
 2  0  0  0  7  0  9  0 unit_march                0  1  0 
 2  0  0  0 13  0 15  0 unit_march                0  1  0    
data/animations/LIS_32~testudo~front~row~stand~ready~to~stand~ready.cas           0      0       +0.0000   +0.0000   +0.0000         0 +0.0000    0   0  +0.0000      1820   32586 +0.0000  +0.0000  +1.0000 
  0      
data/animations/TESTUDO_17~front~row~stand~to~advance.cas                         0      0       +0.0000   +0.0000   +0.0000         0 +0.0000    0   0  +0.0000      1820   32586 +0.0000  +0.0000  +1.0000 
  1   
 2  0  0  0 21  0 21  0 unit_march                0  0  0    
data/animations/TESTUDO_06~front~row~advance.cas                                  0      0       +0.0000   +0.0000   +0.0000         0 +0.0000    0   0  +0.0000      1820   32586 +0.0000  +0.0000  +1.0000 
  2   
 2  0  0  0  0  0  4  0 unit_march                0  1  0 
 2  0  0  0 12  0 16  0 unit_march                0  1  0    
data/animations/LIS_28~testudo~stand~ready~to~rear~stand~ready~1.cas              0      0       +0.0000   +0.0000   +0.0000         0 +0.0000    0   0  +0.0000      1820   32586 +0.0000  +0.0000  +1.0000 
  2   
 2  0  0  0  5  0  7  0 unit_march                0  1  0 
 1  0  0  0 14  0 16  0 ANIM_TESTUDO              0  1  0    
data/animations/LIS_28~testudo~stand~ready~to~rear~stand~ready~2.cas              0      0       +0.0000   +0.0000   +0.0000         0 +0.0000    0   0  +0.0000      1820   32586 +0.0000  +0.0000  +1.0000 
  2   
 2  0  0  0  6  0  8  0 unit_march                0  1  0 
 1  0  0  0 16  0 18  0 ANIM_TESTUDO              0  1  0    
data/animations/LIS_28~testudo~stand~ready~to~rear~stand~ready~3.cas              0      0       +0.0000   +0.0000   +0.0000         0 +0.0000    0   0  +0.0000      1820   32586 +0.0000  +0.0000  +1.0000 
  2   
 2  0  0  0  7  0  9  0 unit_march                0  1  0 
 1  0  0  0 18  0 20  0 ANIM_TESTUDO              0  1  0    
data/animations/LIS_28~testudo~stand~ready~to~rear~stand~ready~4.cas              0      0       +0.0000   +0.0000   +0.0000         0 +0.0000    0   0  +0.0000      1820   32586 +0.0000  +0.0000  +1.0000 
  2   
 2  0  0  0  5  0  7  0 unit_march                0  1  0 
 1  0  0  0 12  0 14  0 ANIM_TESTUDO              0  1  0    
data/animations/TESTUDO_02~rear~stand~ready.cas                                   0      0       +0.0000   +0.0000   +0.0000         0 +0.0000    0   0  +0.0000      1820   32586 +0.0000  +0.0000  +1.0000 
  0      
data/animations/TESTUDO_28~rear~advance~to~stand.cas                              0      0       +0.0000   +0.0000   +0.0000         0 +0.0000    0   0  +0.0000      1820   32586 +0.0000  +0.0000  +1.0000 
  1   
 2  0  0  0 14  0 16  0 unit_march                0  1  0    
data/animations/TESTUDO_43~rear~shuffle~backwards.cas                             0      0       +0.0000   +0.0000   +0.0000         0 +0.0000    0   0  +0.0000      1820   32586 +0.0000  +0.0000  +1.0000 
  2   
 2  0  0  0  9  0 11  0 unit_march                0  1  0 
 2  0  0  0 12  0 14  0 unit_march                0  1  0    
data/animations/TESTUDO_38~rear~shuffle~forwards.cas                              0      0       +0.0000   +0.0000   +0.0000         0 +0.0000    0   0  +0.0000      1820   32586 +0.0000  +0.0000  +1.0000 
  2   
 2  0  0  0  5  0  7  0 unit_march                0  1  0 
 2  0  0  0 12  0 14  0 unit_march                0  1  0    
data/animations/TESTUDO_48~rear~shuffle~left~1.cas                                0      0       +0.0000   +0.0000   +0.0000         0 +0.0000    0   0  +0.0000      1820   32586 +0.0000  +0.0000  +1.0000 
  2   
 2  0  0  0  6  0  8  0 unit_march                0  1  0 
 2  0  0  0 13  0 15  0 unit_march                0  1  0    
data/animations/TESTUDO_48~rear~shuffle~left~2.cas                                0      0       +0.0000   +0.0000   +0.0000         0 +0.0000    0   0  +0.0000      1820   32586 +0.0000  +0.0000  +1.0000 
  2   
 2  0  0  0  6  0  8  0 unit_march                0  1  0 
 2  0  0  0 13  0 15  0 unit_march                0  1  0    
data/animations/TESTUDO_48~rear~shuffle~left~3.cas                                0      0       +0.0000   +0.0000   +0.0000         0 +0.0000    0   0  +0.0000      1820   32586 +0.0000  +0.0000  +1.0000 
  2   
 2  0  0  0  6  0  8  0 unit_march                0  1  0 
 2  0  0  0 12  0 14  0 unit_march                0  1  0    
data/animations/TESTUDO_48~rear~shuffle~left~4.cas                                0      0       +0.0000   +0.0000   +0.0000         0 +0.0000    0   0  +0.0000      1820   32586 +0.0000  +0.0000  +1.0000 
  2   
 2  0  0  0  6  0  8  0 unit_march                0  1  0 
 2  0  0  0 12  0 14  0 unit_march                0  1  0    
data/animations/TESTUDO_53~rear~shuffle~right~1.cas                               0      0       +0.0000   +0.0000   +0.0000         0 +0.0000    0   0  +0.0000      1820   32586 +0.0000  +0.0000  +1.0000 
  2   
 2  0  0  0  9  0 11  0 unit_march                0  1  0 
 2  0  0  0 17  0 19  0 unit_march                0  1  0    
data/animations/TESTUDO_53~rear~shuffle~right~2.cas                               0      0       +0.0000   +0.0000   +0.0000         0 +0.0000    0   0  +0.0000      1820   32586 +0.0000  +0.0000  +1.0000 
  1   
 2  0  0  0  6  0  8  0 unit_march                0  1  0    
data/animations/TESTUDO_53~rear~shuffle~right~3.cas                               0      0       +0.0000   +0.0000   +0.0000         0 +0.0000    0   0  +0.0000      1820   32586 +0.0000  +0.0000  +1.0000 
  1   
 2  0  0  0 12  0 14  0 unit_march                0  1  0    
data/animations/TESTUDO_53~rear~shuffle~right~4.cas                               0      0       +0.0000   +0.0000   +0.0000         0 +0.0000    0   0  +0.0000      1820   32586 +0.0000  +0.0000  +1.0000 
  1   
 2  0  0  0 12  0 14  0 unit_march                0  1  0    
data/animations/LIS_33~testudo~rear~stand~ready~to~stand~ready~1.cas              0      0       +0.0000   +0.0000   +0.0000         0 +0.0000    0   0  +0.0000      1820   32586 +0.0000  +0.0000  +1.0000 
  2   
 1  0  0  0  0  0  2  0 ANIM_TESTUDO              0  1  0 
 2  0  0  0 12  0 14  0 unit_march                0  1  0    
data/animations/LIS_33~testudo~rear~stand~ready~to~stand~ready~2.cas              0      0       +0.0000   +0.0000   +0.0000         0 +0.0000    0   0  +0.0000      1820   32586 +0.0000  +0.0000  +1.0000 
  2   
 1  0  0  0  0  0  2  0 ANIM_TESTUDO              0  1  0 
 2  0  0  0 12  0 14  0 unit_march                0  1  0    
data/animations/LIS_33~testudo~rear~stand~ready~to~stand~ready~3.cas              0      0       +0.0000   +0.0000   +0.0000         0 +0.0000    0   0  +0.0000      1820   32586 +0.0000  +0.0000  +1.0000 
  2   
 1  0  0  0  0  0  2  0 ANIM_TESTUDO              0  1  0 
 2  0  0  0 12  0 14  0 unit_march                0  1  0    
data/animations/LIS_33~testudo~rear~stand~ready~to~stand~ready~4.cas              0      0       +0.0000   +0.0000   +0.0000         0 +0.0000    0   0  +0.0000      1820   32586 +0.0000  +0.0000  +1.0000 
  2   
 1  0  0  0  0  0  2  0 ANIM_TESTUDO              0  1  0 
 2  0  0  0 12  0 14  0 unit_march                0  1  0    
data/animations/TESTUDO_18~rear~stand~to~advance.cas                              0      0       +0.0000   +0.0000   +0.0000         0 +0.0000    0   0  +0.0000      1820   32586 +0.0000  +0.0000  +1.0000 
  1   
 2  0  0  0 18  0 20  0 unit_march                0  1  0    
data/animations/TESTUDO_07~rear~advance.cas                                       0      0       +0.0000   +0.0000   +0.0000         0 +0.0000    0   0  +0.0000      1820   32586 +0.0000  +0.0000  +1.0000 
  2   
 2  0  0  0  0  0  4  0 unit_march                0  1  0 
 2  0  0  0 14  0 18  0 unit_march                0  1  0    
data/animations/LIS~99~stand~to~hide.cas                                          0      0       +0.0000   +0.0000   +0.0000         0 +0.0000    0   0  +0.0000      1820   32586 +0.0000  +0.0000  +1.0000 
  0      
data/animations/LIS~100~hide.cas                                                  0      0       +0.0000   +0.0000   +0.0000         0 +0.0000    0   0  +0.0000      1820   32586 +0.0000  +0.0000  +1.0000 
  0      
data/animations/LIS~101~hide~to~stand.cas                                         0      0       +0.0000   +0.0000   +0.0000         0 +0.0000    0   0  +0.0000      1820   32586 +0.0000  +0.0000  +1.0000 
  0      
data/animations/LIS~40~Stand~ready~back~impact.cas                                0      0       +0.0000   +0.0000   +0.0000         0 +0.0000    0   0  +0.0000      1820   32586 +0.0000  +0.0000  +1.0000 
  2   
 4  0  0  0  2  0  2  0 INDIVIDUAL_GRUNT          0  0  0 
 2  0  0  0  4  0  4  0 unit_march                0  0  0    
data/animations/LIS~40M~Stand~ready~back~impact.cas                               0      0       +0.0000   +0.0000   +0.0000         0 +0.0000    0   0  +0.0000      1820   32586 +0.0000  +0.0000  +1.0000 
  3   
 4  0  0  0  2  0  2  0 INDIVIDUAL_GRUNT          0  0  0 
 2  0  0  0  6  0  6  0 unit_march                0  0  0 
 2  0  0  0  8  0  8  0 unit_march                0  0  0    
data/animations/LIS~40~Stand~ready~back~right~impact.cas                          0      0       +0.0000   +0.0000   +0.0000         0 +0.0000    0   0  +0.0000      1820   32586 +0.0000  +0.0000  +1.0000 
  3   
 4  0  0  0  2  0  2  0 INDIVIDUAL_GRUNT          0  0  0 
 2  0  0  0  6  0  6  0 unit_march                0  0  0 
 2  0  0  0  8  0  8  0 unit_march                0  0  0    
data/animations/LIS~40M~Stand~ready~back~right~impact.cas                         0      0       +0.0000   +0.0000   +0.0000         0 +0.0000    0   0  +0.0000      1820   32586 +0.0000  +0.0000  +1.0000 
  3   
 4  0  0  0  2  0  2  0 INDIVIDUAL_GRUNT          0  0  0 
 2  0  0  0  4  0  4  0 unit_march                0  0  0 
 2  0  0  0  6  0  6  0 unit_march                0  0  0    
data/animations/LIS~40~Stand~ready~front~impact.cas                               0      0       +0.0000   +0.0000   +0.0000         0 +0.0000    0   0  +0.0000      1820   32586 +0.0000  +0.0000  +1.0000 
  1   
 4  0  0  0  2  0  2  0 INDIVIDUAL_GRUNT          0  0  0    
data/animations/LIS~40M~Stand~ready~front~impact.cas                              0      0       +0.0000   +0.0000   +0.0000         0 +0.0000    0   0  +0.0000      1820   32586 +0.0000  +0.0000  +1.0000 
  3   
 4  0  0  0  2  0  2  0 INDIVIDUAL_GRUNT          0  0  0 
 2  0  0  0  6  0  6  0 unit_march                0  0  0 
 2  0  0  0  8  0  8  0 unit_march                0  0  0    
data/animations/LIS~40~Stand~ready~front~left~impact.cas                          0      0       +0.0000   +0.0000   +0.0000         0 +0.0000    0   0  +0.0000      1820   32586 +0.0000  +0.0000  +1.0000 
  1   
 4  0  0  0  2  0  2  0 INDIVIDUAL_GRUNT          0  0  0    
data/animations/LIS~40M~Stand~ready~front~left~impact.cas                         0      0       +0.0000   +0.0000   +0.0000         0 +0.0000    0   0  +0.0000      1820   32586 +0.0000  +0.0000  +1.0000 
  3   
 4  0  0  0  1  0  1  0 INDIVIDUAL_GRUNT          0  0  0 
 2  0  0  0  6  0  6  0 unit_march                0  0  0 
 2  0  0  0  8  0  8  0 unit_march                0  0  0    
data/animations/Ladder_09~Climb~down~ladder~shield~above~head.cas                 0      0       +0.0000   +0.0000   +0.0000         0 +0.0000    0   0  +0.0000      1820   32586 +0.0000  +0.0000  +1.0000 
  2   
 2  0  0  0  6  0  6  0 unit_march                0  0  0 
 2  0  0  0 14  0 14  0 unit_march                0  0  0    
data/animations/Ladder_10~ilde~shield~above~head.cas                              0      0       +0.0000   +0.0000   +0.0000         0 +0.0000    0   0  +0.0000      1820   32586 +0.0000  +0.0000  +1.0000 
  0      
data/animations/Ladder_08~Climb~up~ladder~shield~above~head.cas                   0      0       +0.0000   +0.0000   +0.0000         0 +0.0000    0   0  +0.0000      1820   32586 +0.0000  +0.0000  +1.0000 
  2   
 2  0  0  0  6  0  6  0 unit_march                0  0  0 
 2  0  0  0 14  0 14  0 unit_march                0  0  0    
data/animations/LIJ~38~Standidle~to~climb~ladder.cas                              0      0       +0.0000   +0.0000   +0.0000         0 +0.0000    0   0  +0.0000      1820   32586 +0.0000  +0.0000  +1.0000 
  2   
 2  0  0  0 12  0 12  0 unit_march                0  0  0 
 2  0  0  0 20  0 20  0 unit_march                0  0  0    
data/animations/LIS_102~Battlement~2~climb~ladder~leftside.cas                    0  58739       +0.0000   +0.0000   +0.0000         0 +0.0000    0   0  +0.0000      1820   32586 +0.0000  +0.0000  +1.0000 
  3   
 2  0  0  0  9  0  9  0 unit_march                0  0  0 
 2  0  0  0 22  0 22  0 unit_march                0  0  0 
 2  0  0  0 32  0 32  0 unit_march                0  0  0    
data/animations/LIS~69~Climb~off~ladder~onto~left~bat~2~standready.cas            0      0       +0.0000   +0.0000   +0.0000         0 +0.0000    0   0  +0.0000      1820   32586 +0.0000  +0.0000  +1.0000 
  2   
 2  0  0  0 31  0 31  0 unit_march                0  0  0 
 2  0  0  0 39  0 39  0 unit_march                0  0  0    
data/animations/LIS~71~Climb~down~ladder~2~Stand~ready.cas                        0   6670       +0.0000   +0.0000   +0.0000         0 +0.0000    0   0  +0.0000      1820   32586 +0.0000  +0.0000  +1.0000 
  2   
 2  0  0  0 26  0 26  0 unit_march                0  0  0 
 2  0  0  0 37  0 37  0 unit_march                0  0  0    0 0 0 0 0 0 0 0 0 0 0 0 0 0 0 0 0 0 0 0 0 0 0 0 0 0 0 0 0 
data/animations/LIS_29~testudo~stand~ready~to~left~column~stand~ready.cas         0      0       +0.0000   +0.0000   +0.0000         0 +0.0000    0   0  +0.0000      1820   32586 +0.0000  +0.0000  +1.0000 
  1   
 2  0  0  0  2  0  4  0 unit_march                0  1  0    
data/animations/LIS_34~testudo~Left~column~stand~ready~to~stand~ready.cas         0      0       +0.0000   +0.0000   +0.0000         0 +0.0000    0   0  +0.0000      1820   32586 +0.0000  +0.0000  +1.0000 
  0      
data/animations/TESTUDO_03~Left~column~stand~ready.cas                            0      0       +0.0000   +0.0000   +0.0000         0 +0.0000    0   0  +0.0000      1820   32586 +0.0000  +0.0000  +1.0000 
  0      
data/animations/TESTUDO_19~left~column~stand~to~advance.cas                       0      0       +0.0000   +0.0000   +0.0000         0 +0.0000    0   0  +0.0000      1820   32586 +0.0000  +0.0000  +1.0000 
  1   
 2  0  0  0 21  0 21  0 unit_march                0  0  0    
data/animations/TESTUDO_08~left~column~advance.cas                                0      0       +0.0000   +0.0000   +0.0000         0 +0.0000    0   0  +0.0000      1820   32586 +0.0000  +0.0000  +1.0000 
  2   
 2  0  0  0  0  0  4  0 unit_march                0  1  0 
 2  0  0  0 14  0 18  0 unit_march                0  1  0    
data/animations/TESTUDO_29~left~column~advance~to~stand.cas                       0      0       +0.0000   +0.0000   +0.0000         0 +0.0000    0   0  +0.0000      1820   32586 +0.0000  +0.0000  +1.0000 
  1   
 2  0  0  0 14  0 16  0 unit_march                0  1  0    
data/animations/TESTUDO_39~Left~column~shuffle~forward.cas                        0      0       +0.0000   +0.0000   +0.0000         0 +0.0000    0   0  +0.0000      1820   32586 +0.0000  +0.0000  +1.0000 
  2   
 2  0  0  0 10  0 11  0 unit_march                0  1  0 
 2  0  0  0 12  0 13  0 unit_march                0  1  0    
data/animations/TESTUDO_44~left~column~shuffle~backwards.cas                      0      0       +0.0000   +0.0000   +0.0000         0 +0.0000    0   0  +0.0000      1820   32586 +0.0000  +0.0000  +1.0000 
  2   
 2  0  0  0  8  0  9  0 unit_march                0  1  0 
 2  0  0  0 15  0 17  0 unit_march                0  1  0    
data/animations/TESTUDO_49~Left~column~shuffle~left.cas                           0      0       +0.0000   +0.0000   +0.0000         0 +0.0000    0   0  +0.0000      1820   32586 +0.0000  +0.0000  +1.0000 
  2   
 2  0  0  0  6  0  8  0 unit_march                0  1  0 
 2  0  0  0 12  0 14  0 unit_march                0  1  0    
data/animations/TESTUDO_54~Left~column~Shuffle~right.cas                          0      0       +0.0000   +0.0000   +0.0000         0 +0.0000    0   0  +0.0000      1820   32586 +0.0000  +0.0000  +1.0000 
  2   
 2  0  0  0  8  0 10  0 unit_march                0  1  0 
 2  0  0  0 14  0 16  0 unit_march                0  1  0    
data/animations/LIS_30~testudo~stand~ready~to~right~coloumn~stand~ready.cas       0      0       +0.0000   +0.0000   +0.0000         0 +0.0000    0   0  +0.0000      1820   32586 +0.0000  +0.0000  +1.0000 
  1   
 2  0  0  0  4  0  6  0 unit_march                0  1  0    
data/animations/LIS_35~testudo~right~coloumn~stand~ready~to~stand~ready.cas       0      0       +0.0000   +0.0000   +0.0000         0 +0.0000    0   0  +0.0000      1820   32586 +0.0000  +0.0000  +1.0000 
  1   
 2  0  0  0 12  0 13  0 unit_march                0  1  0    
data/animations/TESTUDO_04~right~coloumn~stand~ready.cas                          0      0       +0.0000   +0.0000   +0.0000         0 +0.0000    0   0  +0.0000      1820   32586 +0.0000  +0.0000  +1.0000 
  0      
data/animations/TESTUDO_20~right~coloumn~stand~to~advance.cas                     0      0       +0.0000   +0.0000   +0.0000         0 +0.0000    0   0  +0.0000      1820   32586 +0.0000  +0.0000  +1.0000 
  1   
 2  0  0  0 20  0 21  0 unit_march                0  1  0    
data/animations/TESTUDO_09~right~coloumn~advance.cas                              0      0       +0.0000   +0.0000   +0.0000         0 +0.0000    0   0  +0.0000      1820   32586 +0.0000  +0.0000  +1.0000 
  2   
 2  0  0  0  0  0  4  0 unit_march                0  1  0 
 2  0  0  0 14  0 18  0 unit_march                0  1  0    
data/animations/TESTUDO_30~right~coloumn~advance~to~stand.cas                     0      0       +0.0000   +0.0000   +0.0000         0 +0.0000    0   0  +0.0000      1820   32586 +0.0000  +0.0000  +1.0000 
  1   
 2  0  0  0 14  0 16  0 unit_march                0  1  0    
data/animations/TESTUDO_40~right~coloumn~shuffle~forward.cas                      0      0       +0.0000   +0.0000   +0.0000         0 +0.0000    0   0  +0.0000      1820   32586 +0.0000  +0.0000  +1.0000 
  2   
 2  0  0  0  7  0  9  0 unit_march                0  1  0 
 2  0  0  0 11  0 13  0 unit_march                0  1  0    
data/animations/TESTUDO_45~right~coulmn~shuffle~backwards.cas                     0      0       +0.0000   +0.0000   +0.0000         0 +0.0000    0   0  +0.0000      1820   32586 +0.0000  +0.0000  +1.0000 
  2   
 2  0  0  0  8  0 10  0 unit_march                0  1  0 
 2  0  0  0 14  0 16  0 unit_march                0  1  0    
data/animations/TESTUDO_50~right~coloumn~shuffle~left.cas                         0      0       +0.0000   +0.0000   +0.0000         0 +0.0000    0   0  +0.0000      1820   32586 +0.0000  +0.0000  +1.0000 
  2   
 2  0  0  0  8  0 10  0 unit_march                0  1  0 
 2  0  0  0 13  0 15  0 unit_march                0  1  0    
data/animations/TESTUDO_55~right~column~shuffle~right.cas                         0      0       +0.0000   +0.0000   +0.0000         0 +0.0000    0   0  +0.0000      1820   32586 +0.0000  +0.0000  +1.0000 
  2   
 2  0  0  0  7  0  9  0 unit_march                0  1  0 
 2  0  0  0 13  0 15  0 unit_march                0  1  0    
data/animations/carry_and_artillery/LIS~idle~to~Carry~idle.cas                    0      0       +0.0000   +0.0000   +0.0000         0 +0.0000    0   0  +0.0000      1820   32586 +0.0000  +0.0000  +1.0000 
  0      
data/animations/carry_and_artillery/Carry_01~Stand~idle~empty~hands.cas           0      0       +0.0000   +0.0000   +0.0000         0 +0.0000    0   0  +0.0000      1820   32586 +0.0000  +0.0000  +1.0000 
  0      
data/animations/carry_and_artillery/Carry~idle~to~Stand~LIS~idle.cas              0      0       +0.0000   +0.0000   +0.0000         0 +0.0000    0   0  +0.0000      1820   32586 +0.0000  +0.0000  +1.0000 
  0      
data/animations/carry_and_artillery/Carry_08~Empty~hands~2~carry~object.cas       0      0       +0.0000   +0.0000   +0.0000         0 +0.0000    0   0  +0.0000      1820   32586 +0.0000  +0.0000  +1.0000 
  1   
 5  0  0  0 26  0 30  0 exert                     0  1  0    
data/animations/carry_and_artillery/Carry_02~Stand~carrying~object.cas            0      0       +0.0000   +0.0000   +0.0000         0 +0.0000    0   0  +0.0000      1820   32586 +0.0000  +0.0000  +1.0000 
  0      
data/animations/carry_and_artillery/Carry_04~Stand~2~walk~carrying~object.cas     0      0       +0.0000   +0.0000   +0.0000         0 +0.0000    0   0  +0.0000      1820   32586 +0.0000  +0.0000  +1.0000 
  1   
 2  0  0  0 16  0 20  0 unit_march                0  1  0    
data/animations/carry_and_artillery/Carry_03~Walk~carrying~object.cas             0      0       +0.0000   +0.0000   +0.0000         0 +0.0000    0   0  +0.0000      1820   32586 +0.0000  +0.0000  +1.0000 
  2   
 2  0  0  0  6  0 10  0 unit_march                0  1  0 
 2  0  0  0 20  0 24  0 unit_march                0  1  0    
data/animations/carry_and_artillery/Carry_05~walk~2~stand~carrying~object.cas     0      0       +0.0000   +0.0000   +0.0000         0 +0.0000    0   0  +0.0000      1820   32586 +0.0000  +0.0000  +1.0000 
  1   
 2  0  0  0 10  0 14  0 unit_march                0  1  0    
data/animations/carry_and_artillery/Carry_09~Carry~object~2~Empty~hands.cas       0      0       +0.0000   +0.0000   +0.0000         0 +0.0000    0   0  +0.0000      1820   32586 +0.0000  +0.0000  +1.0000 
  1   
 5  0  0  0 34  0 40  0 relief                    0  1  0    
data/animations/carry_and_artillery/Art_17~Stand~2~Push~heavy~object.cas          0      0       +0.0000   +0.0000   +0.0000         0 +0.0000    0   0  +0.0000      1820   32586 +0.0000  +0.0000  +1.0000 
  3   
 2  0  0  0 26  0 28  0 unit_march                0  1  0 
 5  0  0  0 26  0 32  0 exert                     0  1  0 
 2  0  0  0 84  0 86  0 unit_march                0  1  0    
data/animations/carry_and_artillery/Art_18~Push~heavy~object~loop.cas             0      0       +0.0000   +0.0000   +0.0000         0 +0.0000    0   0  +0.0000      1820   32586 +0.0000  +0.0000  +1.0000 
  3   
 5  0  0  0  1  0 13  0 exert                     0  1  0 
 2  0  0  0  6  0  8  0 unit_march                0  1  0 
 2  0  0  0 12  0 13  0 unit_march                0  1  0    
data/animations/carry_and_artillery/Art_19~Push~heavy~object~2~STAND.cas          0      0       +0.0000   +0.0000   +0.0000         0 +0.0000    0   0  +0.0000      1820   32586 +0.0000  +0.0000  +1.0000 
  3   
 2  0  0  0 16  0 20  0 unit_march                0  1  0 
 5  0  0  0 20  0 26  0 relief                    0  1  0 
 2  0  0  0 32  0 35  0 unit_march                0  1  0    
data/animations/carry_and_artillery/Art_20~stand~2~~Pull.cas                      0      0       +0.0000   +0.0000   +0.0000         0 +0.0000    0   0  +0.0000      1820   32586 +0.0000  +0.0000  +1.0000 
  5   
 2  0  0  0 16  0 20  0 unit_march                0  1  0 
 2  0  0  0 34  0 38  0 unit_march                0  1  0 
 5  0  0  0 46  0 52  0 exert                     0  0  0 
 2  0  0  0 65  0 67  0 unit_march                0  0  0 
 2  0  0  0 78  0 80  0 unit_march                0  1  0    
data/animations/carry_and_artillery/Art_21~Pull~loop.cas                          0      0       +0.0000   +0.0000   +0.0000         0 +0.0000    0   0  +0.0000      1820   32586 +0.0000  +0.0000  +1.0000 
  3   
 2  0  0  0  6  0 10  0 unit_march                0  1  0 
 5  0  0  0 12  0 12  0 2                         0  1  0 
 2  0  0  0 12  0 14  0 unit_march                0  1  0    
data/animations/carry_and_artillery/Art_22~Pull~To~stand.cas                      0      0       +0.0000   +0.0000   +0.0000         0 +0.0000    0   0  +0.0000      1820   32586 +0.0000  +0.0000  +1.0000 
  3   
 2  0  0  0 10  0 14  0 unit_march                0  1  0 
 2  0  0  0 22  0 26  0 unit_march                0  1  0 
 2  0  0  0 38  0 42  0 unit_march                0  1  0    
data/animations/carry_and_artillery/Art_23~carry~01~2~raise~hand~in~air.cas       0  58845       +0.0000   +0.0000   +0.0000         0 +0.0000    0   0  +0.0000      1820   32586 +0.0000  +0.0000  +1.0000 
  0      
data/animations/carry_and_artillery/Art_24~~raise~hand~in~air.cas                 0      0       +0.0000   +0.0000   +0.0000         0 +0.0000    0   0  +0.0000      1820   32586 +0.0000  +0.0000  +1.0000 
  0      
data/animations/carry_and_artillery/Art_25~~raise~hand~to~carry~01.cas            0   6638       +0.0000   +0.0000   +0.0000         0 +0.0000    0   0  +0.0000      1820   32586 +0.0000  +0.0000  +1.0000 
  0      
data/animations/carry_and_artillery/Art_26~carry~01~2~raise~hand~in~air.cas       0      0       +0.0000   +0.0000   +0.0000         0 +0.0000    0   0  +0.0000      1820   32586 +0.0000  +0.0000  +1.0000 
  0      
data/animations/carry_and_artillery/Art_27~raised~hand~in~air~loop.cas            0      0       +0.0000   +0.0000   +0.0000         0 +0.0000    0   0  +0.0000      1820   32586 +0.0000  +0.0000  +1.0000 
  0      
data/animations/carry_and_artillery/Art_28~raised~hand~to~carry~01.cas            0      0       +0.0000   +0.0000   +0.0000         0 +0.0000    0   0  +0.0000      1820   32586 +0.0000  +0.0000  +1.0000 
  0      
data/animations/carry_and_artillery/ballista_crew_left_stand2crank.CAS            0      0       +0.0000   +0.0000   +0.0000         0 +0.0000    0   0  +0.0000      1820   32586 +0.0000  +0.0000  +1.0000 
  1   
 2  0  0  0 18  0 22  0 unit_march                0  1  0    
data/animations/carry_and_artillery/ballista_crew_left_crank_loop.CAS             0      0       +0.0000   +0.0000   +0.0000         0 +0.0000    0   0  +0.0000      1820   32586 +0.0000  +0.0000  +1.0000 
  0      
data/animations/carry_and_artillery/ballista_crew_left_fire_idle.CAS              0      0       +0.0000   +0.0000   +0.0000         0 +0.0000    0   0  +0.0000      1820   32586 +0.0000  +0.0000  +1.0000 
  0      
data/animations/carry_and_artillery/ballista_crew_right_stand_2_crank.CAS         0      0       +0.0000   +0.0000   +0.0000         0 +0.0000    0   0  +0.0000      1820   32586 +0.0000  +0.0000  +1.0000 
  1   
 2  0  0  0 34  0 36  0 unit_march                0  1  0    
data/animations/carry_and_artillery/ballista_crew_right_crank_loop.CAS            0      0       +0.0000   +0.0000   +0.0000         0 +0.0000    0   0  +0.0000      1820   32586 +0.0000  +0.0000  +1.0000 
  0      
data/animations/carry_and_artillery/ballista_crew_right_fire_idle.CAS             0      0       +0.0000   +0.0000   +0.0000         0 +0.0000    0   0  +0.0000      1820   32586 +0.0000  +0.0000  +1.0000 
  0      
data/animations/carry_and_artillery/scorpion_crew_01_stand2crank.CAS              0      0       +0.0000   +0.0000   +0.0000         0 +0.0000    0   0  +0.0000      1820   32586 +0.0000  +0.0000  +1.0000 
  1   
 2  0  0  0 11  0 13  0 unit_march                0  1  0    
data/animations/carry_and_artillery/scorpion_crew_02_crank.CAS                    0      0       +0.0000   +0.0000   +0.0000         0 +0.0000    0   0  +0.0000      1820   32586 +0.0000  +0.0000  +1.0000 
  0      
data/animations/carry_and_artillery/scorpion_crew_03_crank2fire_idle.CAS          0      0       +0.0000   +0.0000   +0.0000         0 +0.0000    0   0  +0.0000      1820   32586 +0.0000  +0.0000  +1.0000 
  0      
data/animations/carry_and_artillery/scorpion_crew_04_fire_idle.CAS                0      0       +0.0000   +0.0000   +0.0000         0 +0.0000    0   0  +0.0000      1820   32586 +0.0000  +0.0000  +1.0000 
  0      
data/animations/carry_and_artillery/scorpion_crew_05_fire_commence.CAS            0      0       +0.0000   +0.0000   +0.0000         0 +0.0000    0   0  +0.0000      1820   32586 +0.0000  +0.0000  +1.0000 
  0      
data/animations/carry_and_artillery/scorpion_crew_06_fire_recover.CAS             0      0       +0.0000   +0.0000   +0.0000         0 +0.0000    0   0  +0.0000      1820   32586 +0.0000  +0.0000  +1.0000 
  0      
data/animations/carry_and_artillery/Art_16~Stand~idle~release~crank.cas           0      0       +0.0000   +0.0000   +0.0000         0 +0.0000    0   0  +0.0000      1820   32586 +0.0000  +0.0000  +1.0000 
  4   
 2  0  0  0 16  0 17  0 unit_march                0  1  0 
 2  0  0  0 21  0 23  0 unit_march                0  1  0 
 2  0  0  0 47  0 49  0 unit_march                0  1  0 
 2  0  0  0 58  0 60  0 unit_march                0  1  0    
data/animations/LIS~01~Front~step.cas                                             0      0       +0.0000   +0.0000   +0.0000         0 +0.0000    0   0  +0.0000      1820   32586 +0.0000  +0.0000  +1.0000 
  2   
 2  0  0  0  8  0 10  0 unit_march                0  1  0 
 2  0  0  0 19  0 21  0 unit_march                0  1  0    
data/animations/LIS~01~Back~step.cas                                              0      0       +0.0000   +0.0000   +0.0000         0 +0.0000    0   0  +0.0000      1820   32586 +0.0000  +0.0000  +1.0000 
  2   
 2  0  0  0  9  0 11  0 unit_march                0  1  0 
 2  0  0  0 20  0 22  0 unit_march                0  1  0    
data/animations/LIS~01~Left~step.cas                                              0      0       +0.0000   +0.0000   +0.0000         0 +0.0000    0   0  +0.0000      1820   32586 +0.0000  +0.0000  +1.0000 
  2   
 2  0  0  0  9  0 13  0 unit_march                0  1  0 
 2  0  0  0 20  0 24  0 unit_march                0  1  0    
data/animations/LIS~01~Right~step.cas                                             0      0       +0.0000   +0.0000   +0.0000         0 +0.0000    0   0  +0.0000      1820   32586 +0.0000  +0.0000  +1.0000 
  2   
 2  0  0  0  9  0 13  0 unit_march                0  1  0 
 2  0  0  0 20  0 24  0 unit_march                0  1  0    
data/animations/general_signal_charge.cas                                         0      0       +0.0000   +0.0000   +0.0000         0 +0.0000    0   0  +0.0000      1820   32586 +0.0000  +0.0000  +1.0000 
  0      
data/animations/general_signal_move.cas                                           0      0       +0.0000   +0.0000   +0.0000         0 +0.0000    0   0  +0.0000      1820   32586 +0.0000  +0.0000  +1.0000 
  0      
data/animations/general_signal_reform.cas                                         0      0       +0.0000   +0.0000   +0.0000         0 +0.0000    0   0  +0.0000      1820   32586 +0.0000  +0.0000  +1.0000 
  0      
data/animations/general_signal_halt.cas                                           0      0       +0.0000   +0.0000   +0.0000         0 +0.0000    0   0  +0.0000      1820   32586 +0.0000  +0.0000  +1.0000 
  0   0    
data/animations/LIS_107_pushed_back.CAS                                           0      0       +0.0000   +0.0000   +0.0000         0 +0.0000    0   0  +0.0000      1820   32586 +0.0000  +0.0000  +1.0000 
  0   0 0    
data/animations/carry_and_artillery/ballista_crew_left_fire_idle.CAS              0      0       +0.0000   +0.0000   +0.0000         0 +0.0000    0   0  +0.0000      1820   32586 +0.0000  +0.0000  +1.0000 
  0      
data/animations/carry_and_artillery/ballista_crew_left_fire_commence.CAS          0      0       +0.0000   +0.0000   +0.0000         0 +0.0000    0   0  +0.0000      1820   32586 +0.0000  +0.0000  +1.0000 
  0      
data/animations/carry_and_artillery/ballista_crew_left_fire_recover.CAS           0      0       +0.0000   +0.0000   +0.0000         0 +0.0000    0   0  +0.0000      1820   32586 +0.0000  +0.0000  +1.0000 
  1   
 2  0  0  0 33  0 36  0 unit_march                0  1  0    
data/animations/carry_and_artillery/ballista_crew_right_fire_idle.CAS             0      0       +0.0000   +0.0000   +0.0000         0 +0.0000    0   0  +0.0000      1820   32586 +0.0000  +0.0000  +1.0000 
  0      
data/animations/carry_and_artillery/ballista_crew_right_fire_commence.CAS         0      0       +0.0000   +0.0000   +0.0000         0 +0.0000    0   0  +0.0000      1820   32586 +0.0000  +0.0000  +1.0000 
  1   
 2  0  0  0 16  0 19  0 unit_march                0  1  0    
data/animations/carry_and_artillery/ballista_crew_right_fire_recover.CAS          0      0       +0.0000   +0.0000   +0.0000         0 +0.0000    0   0  +0.0000      1820   32586 +0.0000  +0.0000  +1.0000 
  1   
 2  0  0  0 20  0 23  0 unit_march                0  1  0    
data/animations/LIS_108_guard_high.CAS                                            0      0       +0.0000   +0.0000   +0.0000         0 +0.0000    0   0  +0.0000      1820   32586 +0.0000  +0.0000  +1.0000 
  0      
data/animations/LIS_109_guard_low.CAS                                             0      0       +0.0000   +0.0000   +0.0000         0 +0.0000    0   0  +0.0000      1820   32586 +0.0000  +0.0000  +1.0000 
  0      
data/animations/LIS_112_dodge.CAS                                                 0      0       +0.0000   +0.0000   +0.0000         0 +0.0000    0   0  +0.0000      1820   32586 +0.0000  +0.0000  +1.0000 
  0      
data/animations/LIS_112_dodge.CAS                                                 0      0       +0.0000   +0.0000   +0.0000         0 +0.0000    0   0  +0.0000      1820   32586 +0.0000  +0.0000  +1.0000 
  0      
data/animations/LIS_111_feint.CAS                                                 0      0       +0.0000   +0.0000   +0.0000         0 +0.0000    0   0  +0.0000      1820   32586 +0.0000  +0.0000  +1.0000 
  1   
 1  0  0  0  3  0  3  0 ANIM_SWOOSH               0  0  0    
data/animations/LIS_111_feint.CAS                                                 0      0       +0.0000   +0.0000   +0.0000         0 +0.0000    0   0  +0.0000      1820   32586 +0.0000  +0.0000  +1.0000 
  1   
 1  0  0  0  3  0  3  0 ANIM_SWOOSH               0  0  0    
data/animations/LIS_110_combat_step_back.CAS                                      0      0       +0.0000   +0.0000   +0.0000         0 +0.0000    0   0  +0.0000      1820   32586 +0.0000  +0.0000  +1.0000 
  1   
 2  0  0  0  7  0  7  0 unit_march                0  0  0    
data/animations/LIS_113_knockdown_launch.CAS                                      0      0       +0.0000   +0.0000   +0.0000         0 +0.0000    0   0  +0.0000      1820   32586 +0.0000  +0.0000  +1.0000 
  2   
 4  0  0  0  2  0  2  0 INDIVIDUAL_GRUNT          0  0  0 
 2  0  0  0 10  0 10  0 fall                      0  0  0    
data/animations/LIS_116_knockdown.CAS                                             0      0       +0.0000   +0.0000   +0.0000         0 +0.0000    0   0  +0.0000      1820   32586 +0.0000  +0.0000  +1.0000 
  2   
 4  0  0  0  2  0  2  0 INDIVIDUAL_GRUNT          0  0  0 
 2  0  0  0  8  0  8  0 fall                      0  0  0    
data/animations/LIS_114_knockdown_idle.CAS                                        0      0       +0.0000   +0.0000   +0.0000         0 +0.0000    0   0  +0.0000      1820   32586 +0.0000  +0.0000  +1.0000 
  0      
data/animations/LIS_115_knockdown_idle_2_Stand_ready.CAS                          0      0       +0.0000   +0.0000   +0.0000         0 +0.0000    0   0  +0.0000      1820   32586 +0.0000  +0.0000  +1.0000 
  1   
 2  0  0  0 24  0 24  0 unit_march                0  0  0    
data/animations/LIS~72_06~Taunt.cas                                               0      0       +0.0000   +0.0000   +0.0000         0 +0.0000    0   0  +0.0000      1820   32586 +0.0000  +0.0000  +1.0000 
 12   
 5  0  0  0 15  0 15  0 taunt_hit                 0  0  0 
 5  0  0  0 20  0 20  0 taunt_hit                 0  0  0 
 5  0  0  0 25  0 25  0 taunt_hit                 0  0  0 
 5  0  0  0 29  0 29  0 taunt_hit                 0  0  0 
 5  0  0  0 34  0 34  0 taunt_hit                 0  0  0 
 4  0  0  0 45  0 65  0 Taunting                  0  1  0 
 5  0  0  0 87  0 87  0 taunt_hit                 0  0  0 
 5  0  0  0 92  0 92  0 taunt_hit                 0  0  0 
 5  0  0  0 97  0 100  0 taunt_hit                 0  0  0 
 5  0  0  0 102  0 105  0 taunt_hit                 0  0  0 
 5  0  0  0 107  0 107  0 taunt_hit                 0  0  0 
 5  0  0  0 112  0 112  0 taunt_hit                 0  0  0    
data/animations/LIS~72_01~Taunt~1.cas                                             0      0       +0.0000   +0.0000   +0.0000         0 +0.0000    0   0  +0.0000      1820   32586 +0.0000  +0.0000  +1.0000 
  5   
 5  0  0  0 10  0 40  0 taunt_hit                 0  0  0 
 5  0  0  0 12  0 15  0 taunt_hit                 0  0  0 
 5  0  0  0 26  0 29  0 taunt_hit                 0  0  0 
 5  0  0  0 37  0 40  0 taunt_hit                 0  0  0 
 5  0  0  0 50  0 53  0 taunt_hit                 0  0  0    
data/animations/LIS~72_07~~TAUNT~3.cas                                            0      0       +0.0000   +0.0000   +0.0000         0 +0.0000    0   0  +0.0000      1820   32586 +0.0000  +0.0000  +1.0000 
  1   
 4  0  0  0 15  0 45  0 Taunting                  0  1  0    0 
data/animations/Stand~Idle~to~Druid~Chant.cas                                     0      0       +0.0000   +0.0000   +0.0000         0 +0.0000    0   0  +0.0000      1820   32586 +0.0000  +0.0000  +1.0000 
  0      
data/animations/Druid~Chant.cas                                                   0      0       +0.0000   +0.0000   +0.0000         0 +0.0000    0   0  +0.0000      1820   32586 +0.0000  +0.0000  +1.0000 
  1   
 1  0  0  0  0  0 20  0 DRUID_CHANT               0  1  1    
data/animations/Druid~Chant~to~Stand~Idle.cas                                     0      0       +0.0000   +0.0000   +0.0000         0 +0.0000    0   0  +0.0000      1820   32586 +0.0000  +0.0000  +1.0000 
  0   0 0    
data/animations/LIS~74_06~celeb2.cas                                              0      0       +0.0000   +0.0000   +0.0000         0 +0.0000    0   0  +0.0000      1820   32586 +0.0000  +0.0000  +1.0000 
  1   
 4  0  0  0 25  0 40  0 Celebration               0  1  0    0 0 0 
data/animations/LIS_swim_STAND2SWIM.CAS                                           0      0       +0.0000   +0.0000   +0.0000         0 +0.0000    0   0  +0.0000      1820   32586 +0.0000  +0.0000  +1.0000 
  0      
data/animations/LIS_swim_SWIM2STAND.CAS                                           0      0       +0.0000   +0.0000   +0.0000         0 +0.0000    0   0  +0.0000      1820   32586 +0.0000  +0.0000  +1.0000 
  0      
data/animations/LIS_swim_treadwater.CAS                                           0      0       +0.0000   +0.0000   +0.0000         0 +0.0000    0   0  +0.0000      1820   32586 +0.0000  +0.0000  +1.0000 
  0      
data/animations/LIS_swim.cas                                                      0      0       +0.0000   +0.0000   +0.0000         0 +0.0000    0   0  +0.0000      1820   32586 +0.0000  +0.0000  +1.0000 
  0      
data/animations/LIS_swim_shuffle_forward.CAS                                      0      0       +0.0000   +0.0000   +0.0000         0 +0.0000    0   0  +0.0000      1820   32586 +0.0000  +0.0000  +1.0000 
  0      
data/animations/LIS_swim_shuffle_backward.CAS                                     0      0       +0.0000   +0.0000   +0.0000         0 +0.0000    0   0  +0.0000      1820   32586 +0.0000  +0.0000  +1.0000 
  0      
data/animations/LIS_swim_shuffle_left.CAS                                         0      0       +0.0000   +0.0000   +0.0000         0 +0.0000    0   0  +0.0000      1820   32586 +0.0000  +0.0000  +1.0000 
  0      
data/animations/LIS_swim_shuffle_right.CAS                                        0      0       +0.0000   +0.0000   +0.0000         0 +0.0000    0   0  +0.0000      1820   32586 +0.0000  +0.0000  +1.0000 
  0      
data/animations/LIS_swim_attack.CAS                                               0      0       +0.0432   +0.0000   +1.5994       282 +1.6000   15   0  +0.0896      1820   32586 +0.0000  +0.0000  +1.0000 
  0      0 0 
  +1.7779700   +4.3096256   +6.2000012 0 1 
